<?xml version="1.0" encoding="utf-8"?>
<!DOCTYPE eagle SYSTEM "eagle.dtd">
<eagle version="6.1">
<drawing>
<settings>
<setting alwaysvectorfont="no"/>
<setting verticaltext="up"/>
</settings>
<grid distance="0.1" unitdist="inch" unit="inch" style="lines" multiple="1" display="no" altdistance="0.01" altunitdist="inch" altunit="inch"/>
<layers>
<layer number="1" name="Top" color="4" fill="1" visible="no" active="no"/>
<layer number="2" name="Route2" color="1" fill="3" visible="no" active="no"/>
<layer number="3" name="Route3" color="4" fill="3" visible="no" active="no"/>
<layer number="4" name="Route4" color="1" fill="4" visible="no" active="no"/>
<layer number="5" name="Route5" color="4" fill="4" visible="no" active="no"/>
<layer number="6" name="Route6" color="1" fill="8" visible="no" active="no"/>
<layer number="7" name="Route7" color="4" fill="8" visible="no" active="no"/>
<layer number="8" name="Route8" color="1" fill="2" visible="no" active="no"/>
<layer number="9" name="Route9" color="4" fill="2" visible="no" active="no"/>
<layer number="10" name="Route10" color="1" fill="7" visible="no" active="no"/>
<layer number="11" name="Route11" color="4" fill="7" visible="no" active="no"/>
<layer number="12" name="Route12" color="1" fill="5" visible="no" active="no"/>
<layer number="13" name="Route13" color="4" fill="5" visible="no" active="no"/>
<layer number="14" name="Route14" color="1" fill="6" visible="no" active="no"/>
<layer number="15" name="Route15" color="4" fill="6" visible="no" active="no"/>
<layer number="16" name="Bottom" color="1" fill="1" visible="no" active="no"/>
<layer number="17" name="Pads" color="2" fill="1" visible="no" active="no"/>
<layer number="18" name="Vias" color="2" fill="1" visible="no" active="no"/>
<layer number="19" name="Unrouted" color="6" fill="1" visible="no" active="no"/>
<layer number="20" name="Dimension" color="15" fill="1" visible="no" active="no"/>
<layer number="21" name="tPlace" color="7" fill="1" visible="no" active="no"/>
<layer number="22" name="bPlace" color="7" fill="1" visible="no" active="no"/>
<layer number="23" name="tOrigins" color="15" fill="1" visible="no" active="no"/>
<layer number="24" name="bOrigins" color="15" fill="1" visible="no" active="no"/>
<layer number="25" name="tNames" color="7" fill="1" visible="no" active="no"/>
<layer number="26" name="bNames" color="7" fill="1" visible="no" active="no"/>
<layer number="27" name="tValues" color="7" fill="1" visible="no" active="no"/>
<layer number="28" name="bValues" color="7" fill="1" visible="no" active="no"/>
<layer number="29" name="tStop" color="7" fill="3" visible="no" active="no"/>
<layer number="30" name="bStop" color="7" fill="6" visible="no" active="no"/>
<layer number="31" name="tCream" color="7" fill="4" visible="no" active="no"/>
<layer number="32" name="bCream" color="7" fill="5" visible="no" active="no"/>
<layer number="33" name="tFinish" color="6" fill="3" visible="no" active="no"/>
<layer number="34" name="bFinish" color="6" fill="6" visible="no" active="no"/>
<layer number="35" name="tGlue" color="7" fill="4" visible="no" active="no"/>
<layer number="36" name="bGlue" color="7" fill="5" visible="no" active="no"/>
<layer number="37" name="tTest" color="7" fill="1" visible="no" active="no"/>
<layer number="38" name="bTest" color="7" fill="1" visible="no" active="no"/>
<layer number="39" name="tKeepout" color="4" fill="11" visible="no" active="no"/>
<layer number="40" name="bKeepout" color="1" fill="11" visible="no" active="no"/>
<layer number="41" name="tRestrict" color="4" fill="10" visible="no" active="no"/>
<layer number="42" name="bRestrict" color="1" fill="10" visible="no" active="no"/>
<layer number="43" name="vRestrict" color="2" fill="10" visible="no" active="no"/>
<layer number="44" name="Drills" color="7" fill="1" visible="no" active="no"/>
<layer number="45" name="Holes" color="7" fill="1" visible="no" active="no"/>
<layer number="46" name="Milling" color="3" fill="1" visible="no" active="no"/>
<layer number="47" name="Measures" color="7" fill="1" visible="no" active="no"/>
<layer number="48" name="Document" color="7" fill="1" visible="no" active="no"/>
<layer number="49" name="Reference" color="7" fill="1" visible="no" active="no"/>
<layer number="50" name="dxf" color="7" fill="1" visible="no" active="no"/>
<layer number="51" name="tDocu" color="7" fill="1" visible="no" active="no"/>
<layer number="52" name="bDocu" color="7" fill="1" visible="no" active="no"/>
<layer number="53" name="tGND_GNDA" color="7" fill="9" visible="no" active="no"/>
<layer number="54" name="bGND_GNDA" color="1" fill="9" visible="no" active="no"/>
<layer number="56" name="wert" color="7" fill="1" visible="no" active="no"/>
<layer number="91" name="Nets" color="2" fill="1" visible="yes" active="yes"/>
<layer number="92" name="Busses" color="1" fill="1" visible="yes" active="yes"/>
<layer number="93" name="Pins" color="2" fill="1" visible="no" active="yes"/>
<layer number="94" name="Symbols" color="4" fill="1" visible="yes" active="yes"/>
<layer number="95" name="Names" color="7" fill="1" visible="yes" active="yes"/>
<layer number="96" name="Values" color="7" fill="1" visible="yes" active="yes"/>
<layer number="97" name="Info" color="7" fill="1" visible="yes" active="yes"/>
<layer number="98" name="Guide" color="6" fill="1" visible="yes" active="yes"/>
<layer number="100" name="Muster" color="7" fill="1" visible="no" active="no"/>
<layer number="101" name="Patch_Top" color="12" fill="4" visible="yes" active="yes"/>
<layer number="102" name="Vscore" color="7" fill="1" visible="yes" active="yes"/>
<layer number="103" name="fp3" color="7" fill="1" visible="no" active="yes"/>
<layer number="104" name="Name" color="7" fill="1" visible="yes" active="yes"/>
<layer number="105" name="Beschreib" color="9" fill="1" visible="yes" active="yes"/>
<layer number="106" name="BGA-Top" color="4" fill="1" visible="yes" active="yes"/>
<layer number="107" name="BD-Top" color="5" fill="1" visible="yes" active="yes"/>
<layer number="108" name="fp8" color="7" fill="1" visible="no" active="yes"/>
<layer number="109" name="fp9" color="7" fill="1" visible="no" active="yes"/>
<layer number="110" name="fp0" color="7" fill="1" visible="no" active="yes"/>
<layer number="111" name="LPC17xx" color="7" fill="1" visible="yes" active="yes"/>
<layer number="112" name="tSilk" color="7" fill="1" visible="yes" active="yes"/>
<layer number="116" name="Patch_BOT" color="9" fill="4" visible="yes" active="yes"/>
<layer number="121" name="_tsilk" color="7" fill="1" visible="yes" active="yes"/>
<layer number="122" name="_bsilk" color="7" fill="1" visible="yes" active="yes"/>
<layer number="123" name="tTestmark" color="7" fill="1" visible="no" active="yes"/>
<layer number="124" name="bTestmark" color="7" fill="1" visible="no" active="yes"/>
<layer number="125" name="_tNames" color="7" fill="1" visible="yes" active="yes"/>
<layer number="126" name="_bNames" color="7" fill="1" visible="yes" active="yes"/>
<layer number="127" name="_tValues" color="7" fill="1" visible="yes" active="yes"/>
<layer number="128" name="_bValues" color="7" fill="1" visible="yes" active="yes"/>
<layer number="131" name="tAdjust" color="7" fill="1" visible="no" active="yes"/>
<layer number="132" name="bAdjust" color="7" fill="1" visible="no" active="yes"/>
<layer number="144" name="Drill_legend" color="7" fill="1" visible="yes" active="yes"/>
<layer number="151" name="HeatSink" color="7" fill="1" visible="yes" active="yes"/>
<layer number="152" name="_bDocu" color="7" fill="1" visible="yes" active="yes"/>
<layer number="199" name="Contour" color="7" fill="1" visible="yes" active="yes"/>
<layer number="200" name="200bmp" color="1" fill="10" visible="yes" active="yes"/>
<layer number="201" name="201bmp" color="2" fill="1" visible="no" active="no"/>
<layer number="202" name="202bmp" color="3" fill="1" visible="no" active="no"/>
<layer number="203" name="203bmp" color="4" fill="10" visible="yes" active="yes"/>
<layer number="204" name="204bmp" color="5" fill="10" visible="yes" active="yes"/>
<layer number="205" name="205bmp" color="6" fill="10" visible="yes" active="yes"/>
<layer number="206" name="206bmp" color="7" fill="10" visible="yes" active="yes"/>
<layer number="207" name="207bmp" color="8" fill="10" visible="yes" active="yes"/>
<layer number="208" name="208bmp" color="9" fill="10" visible="yes" active="yes"/>
<layer number="209" name="209bmp" color="7" fill="1" visible="no" active="yes"/>
<layer number="210" name="210bmp" color="7" fill="1" visible="no" active="yes"/>
<layer number="211" name="211bmp" color="7" fill="1" visible="yes" active="yes"/>
<layer number="212" name="212bmp" color="7" fill="1" visible="yes" active="yes"/>
<layer number="213" name="213bmp" color="7" fill="1" visible="yes" active="yes"/>
<layer number="214" name="214bmp" color="7" fill="1" visible="yes" active="yes"/>
<layer number="215" name="215bmp" color="7" fill="1" visible="yes" active="yes"/>
<layer number="216" name="216bmp" color="7" fill="1" visible="yes" active="yes"/>
<layer number="217" name="217bmp" color="18" fill="1" visible="no" active="no"/>
<layer number="218" name="218bmp" color="19" fill="1" visible="no" active="no"/>
<layer number="219" name="219bmp" color="20" fill="1" visible="no" active="no"/>
<layer number="220" name="220bmp" color="21" fill="1" visible="no" active="no"/>
<layer number="221" name="221bmp" color="22" fill="1" visible="no" active="no"/>
<layer number="222" name="222bmp" color="23" fill="1" visible="no" active="no"/>
<layer number="223" name="223bmp" color="24" fill="1" visible="no" active="no"/>
<layer number="224" name="224bmp" color="25" fill="1" visible="no" active="no"/>
<layer number="248" name="Housing" color="7" fill="1" visible="yes" active="yes"/>
<layer number="249" name="Edge" color="7" fill="1" visible="yes" active="yes"/>
<layer number="250" name="Descript" color="7" fill="1" visible="no" active="no"/>
<layer number="251" name="SMDround" color="7" fill="1" visible="no" active="no"/>
<layer number="254" name="cooling" color="7" fill="1" visible="yes" active="yes"/>
</layers>
<schematic xreflabel="%F%N/%S.%C%R" xrefpart="/%S.%C%R">
<libraries>
<library name="adafruit">
<packages>
<package name="ARDUINO">
<description>&lt;b&gt;Arduino Uno&lt;/b&gt;
&lt;p&gt;
Make a shield with ease, this package has all the named pins as well as the two mounting drill holes and an outline of the USB and DC power connector. The outline is on the DIMENSION layer, so if your board house uses it they will cut the outline to match.</description>
<wire x1="0" y1="0" x2="66.04" y2="0" width="0" layer="20"/>
<wire x1="66.04" y1="0" x2="66.04" y2="2.54" width="0" layer="20"/>
<wire x1="66.04" y1="2.54" x2="68.58" y2="5.08" width="0" layer="20"/>
<wire x1="68.58" y1="5.08" x2="68.58" y2="37.846" width="0" layer="20"/>
<wire x1="68.58" y1="37.846" x2="66.04" y2="40.386" width="0" layer="20"/>
<wire x1="66.04" y1="40.386" x2="66.04" y2="51.816" width="0" layer="20"/>
<wire x1="66.04" y1="51.816" x2="64.516" y2="53.34" width="0" layer="20"/>
<wire x1="64.516" y1="53.34" x2="0" y2="53.34" width="0" layer="20"/>
<wire x1="9.144" y1="31.75" x2="9.144" y2="44.45" width="0" layer="52"/>
<wire x1="9.144" y1="44.45" x2="-6.604" y2="44.45" width="0" layer="52"/>
<wire x1="-6.604" y1="44.45" x2="-6.604" y2="31.75" width="0" layer="52"/>
<wire x1="-6.604" y1="31.75" x2="9.144" y2="31.75" width="0" layer="52"/>
<wire x1="0" y1="53.34" x2="0" y2="0" width="0" layer="20"/>
<wire x1="-1.778" y1="3.81" x2="12.192" y2="3.81" width="0" layer="52"/>
<wire x1="12.192" y1="3.81" x2="12.192" y2="12.7" width="0" layer="52"/>
<wire x1="12.192" y1="12.7" x2="-1.778" y2="12.7" width="0" layer="52"/>
<wire x1="-1.778" y1="12.7" x2="-1.778" y2="3.81" width="0" layer="52"/>
<pad name="D4" x="53.34" y="50.8" drill="1" diameter="1.6764" shape="octagon"/>
<pad name="A0" x="50.8" y="2.54" drill="1" diameter="1.6764" shape="octagon"/>
<pad name="D3" x="55.88" y="50.8" drill="1" diameter="1.6764" shape="octagon"/>
<pad name="D2" x="58.42" y="50.8" drill="1" diameter="1.6764" shape="octagon"/>
<pad name="D1" x="60.96" y="50.8" drill="1" diameter="1.6764" shape="octagon"/>
<pad name="D0" x="63.5" y="50.8" drill="1" diameter="1.6764" shape="octagon"/>
<pad name="D5" x="50.8" y="50.8" drill="1" diameter="1.6764" shape="octagon"/>
<pad name="D6" x="48.26" y="50.8" drill="1" diameter="1.6764" shape="octagon"/>
<pad name="D7" x="45.72" y="50.8" drill="1" diameter="1.6764" shape="octagon"/>
<pad name="D8" x="41.656" y="50.8" drill="1" diameter="1.6764" shape="octagon"/>
<pad name="D9" x="39.116" y="50.8" drill="1" diameter="1.6764" shape="octagon"/>
<pad name="D10" x="36.576" y="50.8" drill="1" diameter="1.6764" shape="octagon"/>
<pad name="D11" x="34.036" y="50.8" drill="1" diameter="1.6764" shape="octagon"/>
<pad name="D12" x="31.496" y="50.8" drill="1" diameter="1.6764" shape="octagon"/>
<pad name="D13" x="28.956" y="50.8" drill="1" diameter="1.6764" shape="octagon"/>
<pad name="GND" x="26.416" y="50.8" drill="1" diameter="1.6764" shape="octagon"/>
<pad name="AREF" x="23.876" y="50.8" drill="1" diameter="1.6764" shape="octagon"/>
<pad name="A1" x="53.34" y="2.54" drill="1" diameter="1.6764" shape="octagon"/>
<pad name="A2" x="55.88" y="2.54" drill="1" diameter="1.6764" shape="octagon"/>
<pad name="A3" x="58.42" y="2.54" drill="1" diameter="1.6764" shape="octagon"/>
<pad name="A4" x="60.96" y="2.54" drill="1" diameter="1.6764" shape="octagon"/>
<pad name="A5" x="63.5" y="2.54" drill="1" diameter="1.6764" shape="octagon"/>
<pad name="VIN" x="45.72" y="2.54" drill="1" diameter="1.6764" shape="octagon"/>
<pad name="GND1" x="43.18" y="2.54" drill="1" diameter="1.6764" shape="octagon"/>
<pad name="GND2" x="40.64" y="2.54" drill="1" diameter="1.6764" shape="octagon"/>
<pad name="5V" x="38.1" y="2.54" drill="1" diameter="1.6764" shape="octagon"/>
<pad name="3V" x="35.56" y="2.54" drill="1" diameter="1.6764" shape="octagon"/>
<pad name="RESET" x="33.02" y="2.54" drill="1" diameter="1.6764" shape="octagon"/>
<text x="31.2319" y="3.81" size="1.016" layer="21" font="vector">RST</text>
<text x="34.7523" y="3.81" size="1.016" layer="21" font="vector">3v</text>
<text x="37.5463" y="3.81" size="1.016" layer="21" font="vector">5v</text>
<text x="40.7771" y="3.81" size="1.016" layer="21" font="vector">Gnd</text>
<text x="44.7853" y="3.81" size="1.016" layer="21" font="vector">Vin</text>
<text x="54.1121" y="0.4623" size="1.016" layer="21" font="vector">Analog In</text>
<text x="50.419" y="3.81" size="1.016" layer="21" font="vector">0</text>
<text x="52.959" y="3.81" size="1.016" layer="21" font="vector">1</text>
<text x="55.499" y="3.81" size="1.016" layer="21" font="vector">2</text>
<text x="58.039" y="3.81" size="1.016" layer="21" font="vector">3</text>
<text x="60.579" y="3.81" size="1.016" layer="21" font="vector">4</text>
<text x="63.119" y="3.81" size="1.016" layer="21" font="vector">5</text>
<text x="24.765" y="49.53" size="1.016" layer="21" font="vector" rot="R180">ARef</text>
<text x="27.94" y="49.53" size="1.016" layer="21" font="vector" rot="R180">gnd</text>
<text x="30.099" y="49.53" size="1.016" layer="21" font="vector" rot="R180">13</text>
<text x="32.639" y="49.53" size="1.016" layer="21" font="vector" rot="R180">12</text>
<text x="35.179" y="49.53" size="1.016" layer="21" font="vector" rot="R180">11</text>
<text x="37.719" y="49.53" size="1.016" layer="21" font="vector" rot="R180">10</text>
<text x="39.751" y="49.53" size="1.016" layer="21" font="vector" rot="R180">9</text>
<text x="42.291" y="49.53" size="1.016" layer="21" font="vector" rot="R180">8</text>
<text x="46.355" y="49.53" size="1.016" layer="21" font="vector" rot="R180">7</text>
<text x="48.895" y="49.53" size="1.016" layer="21" font="vector" rot="R180">6</text>
<text x="51.435" y="49.53" size="1.016" layer="21" font="vector" rot="R180">5</text>
<text x="53.975" y="49.53" size="1.016" layer="21" font="vector" rot="R180">4</text>
<text x="56.515" y="49.53" size="1.016" layer="21" font="vector" rot="R180">3</text>
<text x="59.055" y="49.53" size="1.016" layer="21" font="vector" rot="R180">2</text>
<text x="61.595" y="49.53" size="1.016" layer="21" font="vector" rot="R180">1</text>
<text x="64.135" y="49.53" size="1.016" layer="21" font="vector" rot="R180">0</text>
<text x="31.623" y="52.07" size="1.016" layer="21" font="vector">Digital I/O</text>
<text x="50.927" y="52.07" size="1.016" layer="21" font="vector">Digital I/O</text>
<hole x="15.24" y="50.8" drill="3.2"/>
<hole x="66.04" y="35.56" drill="3.2"/>
<hole x="13.97" y="2.54" drill="3.2"/>
</package>
<package name="ARDUINO-BPLACE">
<wire x1="0" y1="0" x2="66.04" y2="0" width="0" layer="22"/>
<wire x1="66.04" y1="0" x2="66.04" y2="2.54" width="0" layer="22"/>
<wire x1="66.04" y1="2.54" x2="68.58" y2="5.08" width="0" layer="22"/>
<wire x1="68.58" y1="5.08" x2="68.58" y2="37.846" width="0" layer="22"/>
<wire x1="68.58" y1="37.846" x2="66.04" y2="40.386" width="0" layer="22"/>
<wire x1="66.04" y1="40.386" x2="66.04" y2="51.816" width="0" layer="22"/>
<wire x1="66.04" y1="51.816" x2="64.516" y2="53.34" width="0" layer="22"/>
<wire x1="64.516" y1="53.34" x2="0" y2="53.34" width="0" layer="22"/>
<wire x1="9.144" y1="31.75" x2="9.144" y2="44.45" width="0" layer="22"/>
<wire x1="9.144" y1="44.45" x2="-6.604" y2="44.45" width="0" layer="22"/>
<wire x1="-6.604" y1="44.45" x2="-6.604" y2="31.75" width="0" layer="22"/>
<wire x1="-6.604" y1="31.75" x2="9.144" y2="31.75" width="0" layer="22"/>
<wire x1="0" y1="53.34" x2="0" y2="0" width="0" layer="22"/>
<wire x1="-1.778" y1="3.81" x2="12.192" y2="3.81" width="0" layer="22"/>
<wire x1="12.192" y1="3.81" x2="12.192" y2="12.7" width="0" layer="22"/>
<wire x1="12.192" y1="12.7" x2="-1.778" y2="12.7" width="0" layer="22"/>
<wire x1="-1.778" y1="12.7" x2="-1.778" y2="3.81" width="0" layer="22"/>
<pad name="D4" x="53.34" y="50.8" drill="1" diameter="1.6764" shape="octagon"/>
<pad name="A0" x="50.8" y="2.54" drill="1" diameter="1.6764" shape="octagon"/>
<pad name="D3" x="55.88" y="50.8" drill="1" diameter="1.6764" shape="octagon"/>
<pad name="D2" x="58.42" y="50.8" drill="1" diameter="1.6764" shape="octagon"/>
<pad name="D1" x="60.96" y="50.8" drill="1" diameter="1.6764" shape="octagon"/>
<pad name="D0" x="63.5" y="50.8" drill="1" diameter="1.6764" shape="octagon"/>
<pad name="D5" x="50.8" y="50.8" drill="1" diameter="1.6764" shape="octagon"/>
<pad name="D6" x="48.26" y="50.8" drill="1" diameter="1.6764" shape="octagon"/>
<pad name="D7" x="45.72" y="50.8" drill="1" diameter="1.6764" shape="octagon"/>
<pad name="D8" x="41.656" y="50.8" drill="1" diameter="1.6764" shape="octagon"/>
<pad name="D9" x="39.116" y="50.8" drill="1" diameter="1.6764" shape="octagon"/>
<pad name="D10" x="36.576" y="50.8" drill="1" diameter="1.6764" shape="octagon"/>
<pad name="D11" x="34.036" y="50.8" drill="1" diameter="1.6764" shape="octagon"/>
<pad name="D12" x="31.496" y="50.8" drill="1" diameter="1.6764" shape="octagon"/>
<pad name="D13" x="28.956" y="50.8" drill="1" diameter="1.6764" shape="octagon"/>
<pad name="GND" x="26.416" y="50.8" drill="1" diameter="1.6764" shape="octagon"/>
<pad name="AREF" x="23.876" y="50.8" drill="1" diameter="1.6764" shape="octagon"/>
<pad name="A1" x="53.34" y="2.54" drill="1" diameter="1.6764" shape="octagon"/>
<pad name="A2" x="55.88" y="2.54" drill="1" diameter="1.6764" shape="octagon"/>
<pad name="A3" x="58.42" y="2.54" drill="1" diameter="1.6764" shape="octagon"/>
<pad name="A4" x="60.96" y="2.54" drill="1" diameter="1.6764" shape="octagon"/>
<pad name="A5" x="63.5" y="2.54" drill="1" diameter="1.6764" shape="octagon"/>
<pad name="VIN" x="45.72" y="2.54" drill="1" diameter="1.6764" shape="octagon"/>
<pad name="GND1" x="43.18" y="2.54" drill="1" diameter="1.6764" shape="octagon"/>
<pad name="GND2" x="40.64" y="2.54" drill="1" diameter="1.6764" shape="octagon"/>
<pad name="5V" x="38.1" y="2.54" drill="1" diameter="1.6764" shape="octagon"/>
<pad name="3V" x="35.56" y="2.54" drill="1" diameter="1.6764" shape="octagon"/>
<pad name="RESET" x="33.02" y="2.54" drill="1" diameter="1.6764" shape="octagon"/>
<text x="31.2319" y="3.81" size="1.016" layer="21" font="vector">RST</text>
<text x="34.7523" y="3.81" size="1.016" layer="21" font="vector">3v</text>
<text x="37.5463" y="3.81" size="1.016" layer="21" font="vector">5v</text>
<text x="40.7771" y="3.81" size="1.016" layer="21" font="vector">Gnd</text>
<text x="44.7853" y="3.81" size="1.016" layer="21" font="vector">Vin</text>
<text x="54.1121" y="0.4623" size="1.016" layer="21" font="vector">Analog In</text>
<text x="50.419" y="3.81" size="1.016" layer="21" font="vector">0</text>
<text x="52.959" y="3.81" size="1.016" layer="21" font="vector">1</text>
<text x="55.499" y="3.81" size="1.016" layer="21" font="vector">2</text>
<text x="58.039" y="3.81" size="1.016" layer="21" font="vector">3</text>
<text x="60.579" y="3.81" size="1.016" layer="21" font="vector">4</text>
<text x="63.119" y="3.81" size="1.016" layer="21" font="vector">5</text>
<text x="24.765" y="49.53" size="1.016" layer="21" font="vector" rot="R180">ARef</text>
<text x="27.94" y="49.53" size="1.016" layer="21" font="vector" rot="R180">gnd</text>
<text x="30.099" y="49.53" size="1.016" layer="21" font="vector" rot="R180">13</text>
<text x="32.639" y="49.53" size="1.016" layer="21" font="vector" rot="R180">12</text>
<text x="35.179" y="49.53" size="1.016" layer="21" font="vector" rot="R180">11</text>
<text x="37.719" y="49.53" size="1.016" layer="21" font="vector" rot="R180">10</text>
<text x="39.751" y="49.53" size="1.016" layer="21" font="vector" rot="R180">9</text>
<text x="42.291" y="49.53" size="1.016" layer="21" font="vector" rot="R180">8</text>
<text x="46.355" y="49.53" size="1.016" layer="21" font="vector" rot="R180">7</text>
<text x="48.895" y="49.53" size="1.016" layer="21" font="vector" rot="R180">6</text>
<text x="51.435" y="49.53" size="1.016" layer="21" font="vector" rot="R180">5</text>
<text x="53.975" y="49.53" size="1.016" layer="21" font="vector" rot="R180">4</text>
<text x="56.515" y="49.53" size="1.016" layer="21" font="vector" rot="R180">3</text>
<text x="59.055" y="49.53" size="1.016" layer="21" font="vector" rot="R180">2</text>
<text x="61.595" y="49.53" size="1.016" layer="21" font="vector" rot="R180">1</text>
<text x="64.135" y="49.53" size="1.016" layer="21" font="vector" rot="R180">0</text>
<text x="31.623" y="52.07" size="1.016" layer="21" font="vector">Digital I/O</text>
<text x="50.927" y="52.07" size="1.016" layer="21" font="vector">Digital I/O</text>
<hole x="15.24" y="50.8" drill="3.2"/>
<hole x="66.04" y="35.56" drill="3.2"/>
<hole x="13.97" y="2.54" drill="3.2"/>
</package>
<package name="ARDUINO-NOHOLE">
<wire x1="0" y1="0" x2="66.04" y2="0" width="0" layer="22"/>
<wire x1="66.04" y1="0" x2="66.04" y2="2.54" width="0" layer="22"/>
<wire x1="66.04" y1="2.54" x2="68.58" y2="5.08" width="0" layer="22"/>
<wire x1="68.58" y1="5.08" x2="68.58" y2="37.846" width="0" layer="22"/>
<wire x1="68.58" y1="37.846" x2="66.04" y2="40.386" width="0" layer="22"/>
<wire x1="66.04" y1="40.386" x2="66.04" y2="51.816" width="0" layer="22"/>
<wire x1="66.04" y1="51.816" x2="64.516" y2="53.34" width="0" layer="22"/>
<wire x1="64.516" y1="53.34" x2="0" y2="53.34" width="0" layer="22"/>
<wire x1="9.144" y1="31.75" x2="9.144" y2="44.45" width="0" layer="22"/>
<wire x1="9.144" y1="44.45" x2="-6.604" y2="44.45" width="0" layer="22"/>
<wire x1="-6.604" y1="44.45" x2="-6.604" y2="31.75" width="0" layer="22"/>
<wire x1="-6.604" y1="31.75" x2="9.144" y2="31.75" width="0" layer="22"/>
<wire x1="0" y1="53.34" x2="0" y2="0" width="0" layer="22"/>
<wire x1="-1.778" y1="3.81" x2="12.192" y2="3.81" width="0" layer="22"/>
<wire x1="12.192" y1="3.81" x2="12.192" y2="12.7" width="0" layer="22"/>
<wire x1="12.192" y1="12.7" x2="-1.778" y2="12.7" width="0" layer="22"/>
<wire x1="-1.778" y1="12.7" x2="-1.778" y2="3.81" width="0" layer="22"/>
<pad name="D4" x="53.34" y="50.8" drill="1" diameter="1.6764" shape="octagon"/>
<pad name="A0" x="50.8" y="2.54" drill="1" diameter="1.6764" shape="octagon"/>
<pad name="D3" x="55.88" y="50.8" drill="1" diameter="1.6764" shape="octagon"/>
<pad name="D2" x="58.42" y="50.8" drill="1" diameter="1.6764" shape="octagon"/>
<pad name="D1" x="60.96" y="50.8" drill="1" diameter="1.6764" shape="octagon"/>
<pad name="D0" x="63.5" y="50.8" drill="1" diameter="1.6764" shape="octagon"/>
<pad name="D5" x="50.8" y="50.8" drill="1" diameter="1.6764" shape="octagon"/>
<pad name="D6" x="48.26" y="50.8" drill="1" diameter="1.6764" shape="octagon"/>
<pad name="D7" x="45.72" y="50.8" drill="1" diameter="1.6764" shape="octagon"/>
<pad name="D8" x="41.656" y="50.8" drill="1" diameter="1.6764" shape="octagon"/>
<pad name="D9" x="39.116" y="50.8" drill="1" diameter="1.6764" shape="octagon"/>
<pad name="D10" x="36.576" y="50.8" drill="1" diameter="1.6764" shape="octagon"/>
<pad name="D11" x="34.036" y="50.8" drill="1" diameter="1.6764" shape="octagon"/>
<pad name="D12" x="31.496" y="50.8" drill="1" diameter="1.6764" shape="octagon"/>
<pad name="D13" x="28.956" y="50.8" drill="1" diameter="1.6764" shape="octagon"/>
<pad name="GND" x="26.416" y="50.8" drill="1" diameter="1.6764" shape="octagon"/>
<pad name="AREF" x="23.876" y="50.8" drill="1" diameter="1.6764" shape="octagon"/>
<pad name="A1" x="53.34" y="2.54" drill="1" diameter="1.6764" shape="octagon"/>
<pad name="A2" x="55.88" y="2.54" drill="1" diameter="1.6764" shape="octagon"/>
<pad name="A3" x="58.42" y="2.54" drill="1" diameter="1.6764" shape="octagon"/>
<pad name="A4" x="60.96" y="2.54" drill="1" diameter="1.6764" shape="octagon"/>
<pad name="A5" x="63.5" y="2.54" drill="1" diameter="1.6764" shape="octagon"/>
<pad name="VIN" x="45.72" y="2.54" drill="1" diameter="1.6764" shape="octagon"/>
<pad name="GND1" x="43.18" y="2.54" drill="1" diameter="1.6764" shape="octagon"/>
<pad name="GND2" x="40.64" y="2.54" drill="1" diameter="1.6764" shape="octagon"/>
<pad name="5V" x="38.1" y="2.54" drill="1" diameter="1.6764" shape="octagon"/>
<pad name="3V" x="35.56" y="2.54" drill="1" diameter="1.6764" shape="octagon"/>
<pad name="RESET" x="33.02" y="2.54" drill="1" diameter="1.6764" shape="octagon"/>
<text x="31.2319" y="3.81" size="1.016" layer="21" font="vector">RST</text>
<text x="34.7523" y="3.81" size="1.016" layer="21" font="vector">3v</text>
<text x="37.5463" y="3.81" size="1.016" layer="21" font="vector">5v</text>
<text x="40.7771" y="3.81" size="1.016" layer="21" font="vector">Gnd</text>
<text x="44.7853" y="3.81" size="1.016" layer="21" font="vector">Vin</text>
<text x="54.1121" y="0.4623" size="1.016" layer="21" font="vector">Analog In</text>
<text x="50.419" y="3.81" size="1.016" layer="21" font="vector">0</text>
<text x="52.959" y="3.81" size="1.016" layer="21" font="vector">1</text>
<text x="55.499" y="3.81" size="1.016" layer="21" font="vector">2</text>
<text x="58.039" y="3.81" size="1.016" layer="21" font="vector">3</text>
<text x="60.579" y="3.81" size="1.016" layer="21" font="vector">4</text>
<text x="63.119" y="3.81" size="1.016" layer="21" font="vector">5</text>
<text x="24.765" y="49.53" size="1.016" layer="21" font="vector" rot="R180">ARef</text>
<text x="27.94" y="49.53" size="1.016" layer="21" font="vector" rot="R180">gnd</text>
<text x="30.099" y="49.53" size="1.016" layer="21" font="vector" rot="R180">13</text>
<text x="32.639" y="49.53" size="1.016" layer="21" font="vector" rot="R180">12</text>
<text x="35.179" y="49.53" size="1.016" layer="21" font="vector" rot="R180">11</text>
<text x="37.719" y="49.53" size="1.016" layer="21" font="vector" rot="R180">10</text>
<text x="39.751" y="49.53" size="1.016" layer="21" font="vector" rot="R180">9</text>
<text x="42.291" y="49.53" size="1.016" layer="21" font="vector" rot="R180">8</text>
<text x="46.355" y="49.53" size="1.016" layer="21" font="vector" rot="R180">7</text>
<text x="48.895" y="49.53" size="1.016" layer="21" font="vector" rot="R180">6</text>
<text x="51.435" y="49.53" size="1.016" layer="21" font="vector" rot="R180">5</text>
<text x="53.975" y="49.53" size="1.016" layer="21" font="vector" rot="R180">4</text>
<text x="56.515" y="49.53" size="1.016" layer="21" font="vector" rot="R180">3</text>
<text x="59.055" y="49.53" size="1.016" layer="21" font="vector" rot="R180">2</text>
<text x="61.595" y="49.53" size="1.016" layer="21" font="vector" rot="R180">1</text>
<text x="64.135" y="49.53" size="1.016" layer="21" font="vector" rot="R180">0</text>
<text x="31.623" y="52.07" size="1.016" layer="21" font="vector">Digital I/O</text>
<text x="50.927" y="52.07" size="1.016" layer="21" font="vector">Digital I/O</text>
</package>
<package name="ARDUINO-NODIM">
<wire x1="0" y1="0" x2="66.04" y2="0" width="0" layer="52"/>
<wire x1="66.04" y1="0" x2="66.04" y2="2.54" width="0" layer="52"/>
<wire x1="66.04" y1="2.54" x2="68.58" y2="5.08" width="0" layer="52"/>
<wire x1="68.58" y1="5.08" x2="68.58" y2="37.846" width="0" layer="52"/>
<wire x1="68.58" y1="37.846" x2="66.04" y2="40.386" width="0" layer="52"/>
<wire x1="66.04" y1="40.386" x2="66.04" y2="51.816" width="0" layer="52"/>
<wire x1="66.04" y1="51.816" x2="64.516" y2="53.34" width="0" layer="52"/>
<wire x1="64.516" y1="53.34" x2="0" y2="53.34" width="0" layer="52"/>
<wire x1="9.144" y1="31.75" x2="9.144" y2="44.45" width="0" layer="52"/>
<wire x1="9.144" y1="44.45" x2="-6.604" y2="44.45" width="0" layer="52"/>
<wire x1="-6.604" y1="44.45" x2="-6.604" y2="31.75" width="0" layer="52"/>
<wire x1="-6.604" y1="31.75" x2="9.144" y2="31.75" width="0" layer="52"/>
<wire x1="0" y1="53.34" x2="0" y2="0" width="0" layer="52"/>
<wire x1="-1.778" y1="3.81" x2="12.192" y2="3.81" width="0" layer="52"/>
<wire x1="12.192" y1="3.81" x2="12.192" y2="12.7" width="0" layer="52"/>
<wire x1="12.192" y1="12.7" x2="-1.778" y2="12.7" width="0" layer="52"/>
<wire x1="-1.778" y1="12.7" x2="-1.778" y2="3.81" width="0" layer="52"/>
<pad name="D4" x="53.34" y="50.8" drill="1" diameter="1.6764" shape="octagon"/>
<pad name="A0" x="50.8" y="2.54" drill="1" diameter="1.6764" shape="octagon"/>
<pad name="D3" x="55.88" y="50.8" drill="1" diameter="1.6764" shape="octagon"/>
<pad name="D2" x="58.42" y="50.8" drill="1" diameter="1.6764" shape="octagon"/>
<pad name="D1" x="60.96" y="50.8" drill="1" diameter="1.6764" shape="octagon"/>
<pad name="D0" x="63.5" y="50.8" drill="1" diameter="1.6764" shape="octagon"/>
<pad name="D5" x="50.8" y="50.8" drill="1" diameter="1.6764" shape="octagon"/>
<pad name="D6" x="48.26" y="50.8" drill="1" diameter="1.6764" shape="octagon"/>
<pad name="D7" x="45.72" y="50.8" drill="1" diameter="1.6764" shape="octagon"/>
<pad name="D8" x="41.656" y="50.8" drill="1" diameter="1.6764" shape="octagon"/>
<pad name="D9" x="39.116" y="50.8" drill="1" diameter="1.6764" shape="octagon"/>
<pad name="D10" x="36.576" y="50.8" drill="1" diameter="1.6764" shape="octagon"/>
<pad name="D11" x="34.036" y="50.8" drill="1" diameter="1.6764" shape="octagon"/>
<pad name="D12" x="31.496" y="50.8" drill="1" diameter="1.6764" shape="octagon"/>
<pad name="D13" x="28.956" y="50.8" drill="1" diameter="1.6764" shape="octagon"/>
<pad name="GND" x="26.416" y="50.8" drill="1" diameter="1.6764" shape="octagon"/>
<pad name="AREF" x="23.876" y="50.8" drill="1" diameter="1.6764" shape="octagon"/>
<pad name="A1" x="53.34" y="2.54" drill="1" diameter="1.6764" shape="octagon"/>
<pad name="A2" x="55.88" y="2.54" drill="1" diameter="1.6764" shape="octagon"/>
<pad name="A3" x="58.42" y="2.54" drill="1" diameter="1.6764" shape="octagon"/>
<pad name="A4" x="60.96" y="2.54" drill="1" diameter="1.6764" shape="octagon"/>
<pad name="A5" x="63.5" y="2.54" drill="1" diameter="1.6764" shape="octagon"/>
<pad name="VIN" x="45.72" y="2.54" drill="1" diameter="1.6764" shape="octagon"/>
<pad name="GND1" x="43.18" y="2.54" drill="1" diameter="1.6764" shape="octagon"/>
<pad name="GND2" x="40.64" y="2.54" drill="1" diameter="1.6764" shape="octagon"/>
<pad name="5V" x="38.1" y="2.54" drill="1" diameter="1.6764" shape="octagon"/>
<pad name="3V" x="35.56" y="2.54" drill="1" diameter="1.6764" shape="octagon"/>
<pad name="RESET" x="33.02" y="2.54" drill="1" diameter="1.6764" shape="octagon"/>
<text x="31.2319" y="3.81" size="1.016" layer="21" font="vector">RST</text>
<text x="34.7523" y="3.81" size="1.016" layer="21" font="vector">3v</text>
<text x="37.5463" y="3.81" size="1.016" layer="21" font="vector">5v</text>
<text x="40.7771" y="3.81" size="1.016" layer="21" font="vector">Gnd</text>
<text x="44.7853" y="3.81" size="1.016" layer="21" font="vector">Vin</text>
<text x="54.1121" y="0.4623" size="1.016" layer="21" font="vector">Analog In</text>
<text x="50.419" y="3.81" size="1.016" layer="21" font="vector">0</text>
<text x="52.959" y="3.81" size="1.016" layer="21" font="vector">1</text>
<text x="55.499" y="3.81" size="1.016" layer="21" font="vector">2</text>
<text x="58.039" y="3.81" size="1.016" layer="21" font="vector">3</text>
<text x="60.579" y="3.81" size="1.016" layer="21" font="vector">4</text>
<text x="63.119" y="3.81" size="1.016" layer="21" font="vector">5</text>
<text x="24.765" y="49.53" size="1.016" layer="21" font="vector" rot="R180">ARef</text>
<text x="27.94" y="49.53" size="1.016" layer="21" font="vector" rot="R180">gnd</text>
<text x="30.099" y="49.53" size="1.016" layer="21" font="vector" rot="R180">13</text>
<text x="32.639" y="49.53" size="1.016" layer="21" font="vector" rot="R180">12</text>
<text x="35.179" y="49.53" size="1.016" layer="21" font="vector" rot="R180">11</text>
<text x="37.719" y="49.53" size="1.016" layer="21" font="vector" rot="R180">10</text>
<text x="39.751" y="49.53" size="1.016" layer="21" font="vector" rot="R180">9</text>
<text x="42.291" y="49.53" size="1.016" layer="21" font="vector" rot="R180">8</text>
<text x="46.355" y="49.53" size="1.016" layer="21" font="vector" rot="R180">7</text>
<text x="48.895" y="49.53" size="1.016" layer="21" font="vector" rot="R180">6</text>
<text x="51.435" y="49.53" size="1.016" layer="21" font="vector" rot="R180">5</text>
<text x="53.975" y="49.53" size="1.016" layer="21" font="vector" rot="R180">4</text>
<text x="56.515" y="49.53" size="1.016" layer="21" font="vector" rot="R180">3</text>
<text x="59.055" y="49.53" size="1.016" layer="21" font="vector" rot="R180">2</text>
<text x="61.595" y="49.53" size="1.016" layer="21" font="vector" rot="R180">1</text>
<text x="64.135" y="49.53" size="1.016" layer="21" font="vector" rot="R180">0</text>
<text x="31.623" y="52.07" size="1.016" layer="21" font="vector">Digital I/O</text>
<text x="50.927" y="52.07" size="1.016" layer="21" font="vector">Digital I/O</text>
<hole x="15.24" y="50.8" drill="3.2"/>
<hole x="66.04" y="35.56" drill="3.2"/>
<hole x="13.97" y="2.54" drill="3.2"/>
</package>
<package name="1X03">
<description>&lt;b&gt;PIN HEADER&lt;/b&gt;</description>
<wire x1="-3.175" y1="1.27" x2="-1.905" y2="1.27" width="0.1524" layer="21"/>
<wire x1="-1.905" y1="1.27" x2="-1.27" y2="0.635" width="0.1524" layer="21"/>
<wire x1="-1.27" y1="0.635" x2="-1.27" y2="-0.635" width="0.1524" layer="21"/>
<wire x1="-1.27" y1="-0.635" x2="-1.905" y2="-1.27" width="0.1524" layer="21"/>
<wire x1="-1.27" y1="0.635" x2="-0.635" y2="1.27" width="0.1524" layer="21"/>
<wire x1="-0.635" y1="1.27" x2="0.635" y2="1.27" width="0.1524" layer="21"/>
<wire x1="0.635" y1="1.27" x2="1.27" y2="0.635" width="0.1524" layer="21"/>
<wire x1="1.27" y1="0.635" x2="1.27" y2="-0.635" width="0.1524" layer="21"/>
<wire x1="1.27" y1="-0.635" x2="0.635" y2="-1.27" width="0.1524" layer="21"/>
<wire x1="0.635" y1="-1.27" x2="-0.635" y2="-1.27" width="0.1524" layer="21"/>
<wire x1="-0.635" y1="-1.27" x2="-1.27" y2="-0.635" width="0.1524" layer="21"/>
<wire x1="-3.81" y1="0.635" x2="-3.81" y2="-0.635" width="0.1524" layer="21"/>
<wire x1="-3.175" y1="1.27" x2="-3.81" y2="0.635" width="0.1524" layer="21"/>
<wire x1="-3.81" y1="-0.635" x2="-3.175" y2="-1.27" width="0.1524" layer="21"/>
<wire x1="-1.905" y1="-1.27" x2="-3.175" y2="-1.27" width="0.1524" layer="21"/>
<wire x1="1.27" y1="0.635" x2="1.905" y2="1.27" width="0.1524" layer="21"/>
<wire x1="1.905" y1="1.27" x2="3.175" y2="1.27" width="0.1524" layer="21"/>
<wire x1="3.175" y1="1.27" x2="3.81" y2="0.635" width="0.1524" layer="21"/>
<wire x1="3.81" y1="0.635" x2="3.81" y2="-0.635" width="0.1524" layer="21"/>
<wire x1="3.81" y1="-0.635" x2="3.175" y2="-1.27" width="0.1524" layer="21"/>
<wire x1="3.175" y1="-1.27" x2="1.905" y2="-1.27" width="0.1524" layer="21"/>
<wire x1="1.905" y1="-1.27" x2="1.27" y2="-0.635" width="0.1524" layer="21"/>
<pad name="1" x="-2.54" y="0" drill="1.016" rot="R90"/>
<pad name="2" x="0" y="0" drill="1.016" rot="R90"/>
<pad name="3" x="2.54" y="0" drill="1.016" rot="R90"/>
<text x="-3.8862" y="1.8288" size="1.27" layer="25" ratio="10">&gt;NAME</text>
<text x="-3.81" y="-3.175" size="1.27" layer="27">&gt;VALUE</text>
<rectangle x1="-0.254" y1="-0.254" x2="0.254" y2="0.254" layer="51"/>
<rectangle x1="-2.794" y1="-0.254" x2="-2.286" y2="0.254" layer="51"/>
<rectangle x1="2.286" y1="-0.254" x2="2.794" y2="0.254" layer="51"/>
</package>
<package name="1X03-CLEANBIG">
<pad name="1" x="-2.54" y="0" drill="1.016" diameter="1.6764" rot="R90"/>
<pad name="2" x="0" y="0" drill="1.016" diameter="1.6764" rot="R90"/>
<pad name="3" x="2.54" y="0" drill="1.016" diameter="1.6764" rot="R90"/>
<text x="-3.8862" y="1.8288" size="1.27" layer="25" ratio="10">&gt;NAME</text>
<text x="-3.81" y="-3.175" size="1.27" layer="27">&gt;VALUE</text>
<rectangle x1="-0.254" y1="-0.254" x2="0.254" y2="0.254" layer="51"/>
<rectangle x1="-2.794" y1="-0.254" x2="-2.286" y2="0.254" layer="51"/>
<rectangle x1="2.286" y1="-0.254" x2="2.794" y2="0.254" layer="51"/>
</package>
<package name="1X06">
<description>&lt;b&gt;PIN HEADER&lt;/b&gt;</description>
<wire x1="0.635" y1="1.27" x2="1.905" y2="1.27" width="0.1524" layer="21"/>
<wire x1="1.905" y1="1.27" x2="2.54" y2="0.635" width="0.1524" layer="21"/>
<wire x1="2.54" y1="0.635" x2="2.54" y2="-0.635" width="0.1524" layer="21"/>
<wire x1="2.54" y1="-0.635" x2="1.905" y2="-1.27" width="0.1524" layer="21"/>
<wire x1="2.54" y1="0.635" x2="3.175" y2="1.27" width="0.1524" layer="21"/>
<wire x1="3.175" y1="1.27" x2="4.445" y2="1.27" width="0.1524" layer="21"/>
<wire x1="4.445" y1="1.27" x2="5.08" y2="0.635" width="0.1524" layer="21"/>
<wire x1="5.08" y1="0.635" x2="5.08" y2="-0.635" width="0.1524" layer="21"/>
<wire x1="5.08" y1="-0.635" x2="4.445" y2="-1.27" width="0.1524" layer="21"/>
<wire x1="4.445" y1="-1.27" x2="3.175" y2="-1.27" width="0.1524" layer="21"/>
<wire x1="3.175" y1="-1.27" x2="2.54" y2="-0.635" width="0.1524" layer="21"/>
<wire x1="-2.54" y1="0.635" x2="-1.905" y2="1.27" width="0.1524" layer="21"/>
<wire x1="-1.905" y1="1.27" x2="-0.635" y2="1.27" width="0.1524" layer="21"/>
<wire x1="-0.635" y1="1.27" x2="0" y2="0.635" width="0.1524" layer="21"/>
<wire x1="0" y1="0.635" x2="0" y2="-0.635" width="0.1524" layer="21"/>
<wire x1="0" y1="-0.635" x2="-0.635" y2="-1.27" width="0.1524" layer="21"/>
<wire x1="-0.635" y1="-1.27" x2="-1.905" y2="-1.27" width="0.1524" layer="21"/>
<wire x1="-1.905" y1="-1.27" x2="-2.54" y2="-0.635" width="0.1524" layer="21"/>
<wire x1="0.635" y1="1.27" x2="0" y2="0.635" width="0.1524" layer="21"/>
<wire x1="0" y1="-0.635" x2="0.635" y2="-1.27" width="0.1524" layer="21"/>
<wire x1="1.905" y1="-1.27" x2="0.635" y2="-1.27" width="0.1524" layer="21"/>
<wire x1="-6.985" y1="1.27" x2="-5.715" y2="1.27" width="0.1524" layer="21"/>
<wire x1="-5.715" y1="1.27" x2="-5.08" y2="0.635" width="0.1524" layer="21"/>
<wire x1="-5.08" y1="0.635" x2="-5.08" y2="-0.635" width="0.1524" layer="21"/>
<wire x1="-5.08" y1="-0.635" x2="-5.715" y2="-1.27" width="0.1524" layer="21"/>
<wire x1="-5.08" y1="0.635" x2="-4.445" y2="1.27" width="0.1524" layer="21"/>
<wire x1="-4.445" y1="1.27" x2="-3.175" y2="1.27" width="0.1524" layer="21"/>
<wire x1="-3.175" y1="1.27" x2="-2.54" y2="0.635" width="0.1524" layer="21"/>
<wire x1="-2.54" y1="0.635" x2="-2.54" y2="-0.635" width="0.1524" layer="21"/>
<wire x1="-2.54" y1="-0.635" x2="-3.175" y2="-1.27" width="0.1524" layer="21"/>
<wire x1="-3.175" y1="-1.27" x2="-4.445" y2="-1.27" width="0.1524" layer="21"/>
<wire x1="-4.445" y1="-1.27" x2="-5.08" y2="-0.635" width="0.1524" layer="21"/>
<wire x1="-7.62" y1="0.635" x2="-7.62" y2="-0.635" width="0.1524" layer="21"/>
<wire x1="-6.985" y1="1.27" x2="-7.62" y2="0.635" width="0.1524" layer="21"/>
<wire x1="-7.62" y1="-0.635" x2="-6.985" y2="-1.27" width="0.1524" layer="21"/>
<wire x1="-5.715" y1="-1.27" x2="-6.985" y2="-1.27" width="0.1524" layer="21"/>
<wire x1="5.715" y1="1.27" x2="6.985" y2="1.27" width="0.1524" layer="21"/>
<wire x1="6.985" y1="1.27" x2="7.62" y2="0.635" width="0.1524" layer="21"/>
<wire x1="7.62" y1="0.635" x2="7.62" y2="-0.635" width="0.1524" layer="21"/>
<wire x1="7.62" y1="-0.635" x2="6.985" y2="-1.27" width="0.1524" layer="21"/>
<wire x1="5.715" y1="1.27" x2="5.08" y2="0.635" width="0.1524" layer="21"/>
<wire x1="5.08" y1="-0.635" x2="5.715" y2="-1.27" width="0.1524" layer="21"/>
<wire x1="6.985" y1="-1.27" x2="5.715" y2="-1.27" width="0.1524" layer="21"/>
<pad name="1" x="-6.35" y="0" drill="1.016" shape="octagon" rot="R90"/>
<pad name="2" x="-3.81" y="0" drill="1.016" shape="octagon" rot="R90"/>
<pad name="3" x="-1.27" y="0" drill="1.016" shape="octagon" rot="R90"/>
<pad name="4" x="1.27" y="0" drill="1.016" shape="octagon" rot="R90"/>
<pad name="5" x="3.81" y="0" drill="1.016" shape="octagon" rot="R90"/>
<pad name="6" x="6.35" y="0" drill="1.016" shape="octagon" rot="R90"/>
<text x="-7.6962" y="1.8288" size="1.27" layer="25" ratio="10">&gt;NAME</text>
<text x="-7.62" y="-3.175" size="1.27" layer="27">&gt;VALUE</text>
<rectangle x1="3.556" y1="-0.254" x2="4.064" y2="0.254" layer="51"/>
<rectangle x1="1.016" y1="-0.254" x2="1.524" y2="0.254" layer="51"/>
<rectangle x1="-1.524" y1="-0.254" x2="-1.016" y2="0.254" layer="51"/>
<rectangle x1="-4.064" y1="-0.254" x2="-3.556" y2="0.254" layer="51"/>
<rectangle x1="-6.604" y1="-0.254" x2="-6.096" y2="0.254" layer="51"/>
<rectangle x1="6.096" y1="-0.254" x2="6.604" y2="0.254" layer="51"/>
</package>
<package name="1X06-CLEAN">
<pad name="1" x="-6.35" y="0" drill="1.016" shape="octagon" rot="R90"/>
<pad name="2" x="-3.81" y="0" drill="1.016" shape="octagon" rot="R90"/>
<pad name="3" x="-1.27" y="0" drill="1.016" shape="octagon" rot="R90"/>
<pad name="4" x="1.27" y="0" drill="1.016" shape="octagon" rot="R90"/>
<pad name="5" x="3.81" y="0" drill="1.016" shape="octagon" rot="R90"/>
<pad name="6" x="6.35" y="0" drill="1.016" shape="octagon" rot="R90"/>
<text x="-7.6962" y="1.8288" size="1.27" layer="25" ratio="10">&gt;NAME</text>
<text x="-7.62" y="-3.175" size="1.27" layer="27">&gt;VALUE</text>
<rectangle x1="3.556" y1="-0.254" x2="4.064" y2="0.254" layer="51"/>
<rectangle x1="1.016" y1="-0.254" x2="1.524" y2="0.254" layer="51"/>
<rectangle x1="-1.524" y1="-0.254" x2="-1.016" y2="0.254" layer="51"/>
<rectangle x1="-4.064" y1="-0.254" x2="-3.556" y2="0.254" layer="51"/>
<rectangle x1="-6.604" y1="-0.254" x2="-6.096" y2="0.254" layer="51"/>
<rectangle x1="6.096" y1="-0.254" x2="6.604" y2="0.254" layer="51"/>
</package>
<package name="1X06-CLEANBIG">
<pad name="1" x="-6.35" y="0" drill="1.016" diameter="1.778" shape="octagon" rot="R90"/>
<pad name="2" x="-3.81" y="0" drill="1.016" diameter="1.778" shape="octagon" rot="R90"/>
<pad name="3" x="-1.27" y="0" drill="1.016" diameter="1.778" shape="octagon" rot="R90"/>
<pad name="4" x="1.27" y="0" drill="1.016" diameter="1.778" shape="octagon" rot="R90"/>
<pad name="5" x="3.81" y="0" drill="1.016" diameter="1.778" shape="octagon" rot="R90"/>
<pad name="6" x="6.35" y="0" drill="1.016" diameter="1.778" shape="octagon" rot="R90"/>
<text x="-7.6962" y="1.8288" size="1.27" layer="25" ratio="10">&gt;NAME</text>
<text x="-7.62" y="-3.175" size="1.27" layer="27">&gt;VALUE</text>
<rectangle x1="3.556" y1="-0.254" x2="4.064" y2="0.254" layer="51"/>
<rectangle x1="1.016" y1="-0.254" x2="1.524" y2="0.254" layer="51"/>
<rectangle x1="-1.524" y1="-0.254" x2="-1.016" y2="0.254" layer="51"/>
<rectangle x1="-4.064" y1="-0.254" x2="-3.556" y2="0.254" layer="51"/>
<rectangle x1="-6.604" y1="-0.254" x2="-6.096" y2="0.254" layer="51"/>
<rectangle x1="6.096" y1="-0.254" x2="6.604" y2="0.254" layer="51"/>
</package>
<package name="1X06-BIG">
<wire x1="-7.62" y1="1.27" x2="7.62" y2="1.27" width="0.127" layer="21"/>
<wire x1="7.62" y1="1.27" x2="7.62" y2="-1.27" width="0.127" layer="21"/>
<wire x1="7.62" y1="-1.27" x2="-7.62" y2="-1.27" width="0.127" layer="21"/>
<wire x1="-7.62" y1="-1.27" x2="-7.62" y2="1.27" width="0.127" layer="21"/>
<pad name="1" x="-6.35" y="0" drill="1.016" diameter="1.778" shape="octagon" rot="R90"/>
<pad name="2" x="-3.81" y="0" drill="1.016" diameter="1.778" shape="octagon" rot="R90"/>
<pad name="3" x="-1.27" y="0" drill="1.016" diameter="1.778" shape="octagon" rot="R90"/>
<pad name="4" x="1.27" y="0" drill="1.016" diameter="1.778" shape="octagon" rot="R90"/>
<pad name="5" x="3.81" y="0" drill="1.016" diameter="1.778" shape="octagon" rot="R90"/>
<pad name="6" x="6.35" y="0" drill="1.016" diameter="1.778" shape="octagon" rot="R90"/>
<text x="-7.6962" y="1.8288" size="1.27" layer="25" ratio="10">&gt;NAME</text>
<text x="-7.62" y="-3.175" size="1.27" layer="27">&gt;VALUE</text>
<rectangle x1="3.556" y1="-0.254" x2="4.064" y2="0.254" layer="51"/>
<rectangle x1="1.016" y1="-0.254" x2="1.524" y2="0.254" layer="51"/>
<rectangle x1="-1.524" y1="-0.254" x2="-1.016" y2="0.254" layer="51"/>
<rectangle x1="-4.064" y1="-0.254" x2="-3.556" y2="0.254" layer="51"/>
<rectangle x1="-6.604" y1="-0.254" x2="-6.096" y2="0.254" layer="51"/>
<rectangle x1="6.096" y1="-0.254" x2="6.604" y2="0.254" layer="51"/>
</package>
<package name="1X06-BIGLOCK">
<wire x1="-7.62" y1="1.27" x2="7.62" y2="1.27" width="0.127" layer="21"/>
<wire x1="7.62" y1="1.27" x2="7.62" y2="-1.27" width="0.127" layer="21"/>
<wire x1="7.62" y1="-1.27" x2="-7.62" y2="-1.27" width="0.127" layer="21"/>
<wire x1="-7.62" y1="-1.27" x2="-7.62" y2="1.27" width="0.127" layer="21"/>
<pad name="1" x="-6.35" y="0.127" drill="1.016" diameter="1.778" shape="octagon" rot="R90"/>
<pad name="2" x="-3.81" y="-0.127" drill="1.016" diameter="1.778" shape="octagon" rot="R90"/>
<pad name="3" x="-1.27" y="0.127" drill="1.016" diameter="1.778" shape="octagon" rot="R90"/>
<pad name="4" x="1.27" y="-0.127" drill="1.016" diameter="1.778" shape="octagon" rot="R90"/>
<pad name="5" x="3.81" y="0.127" drill="1.016" diameter="1.778" shape="octagon" rot="R90"/>
<pad name="6" x="6.35" y="-0.127" drill="1.016" diameter="1.778" shape="octagon" rot="R90"/>
<text x="-7.6962" y="1.8288" size="1.27" layer="25" ratio="10">&gt;NAME</text>
<text x="-7.62" y="-3.175" size="1.27" layer="27">&gt;VALUE</text>
<rectangle x1="3.556" y1="-0.254" x2="4.064" y2="0.254" layer="51"/>
<rectangle x1="1.016" y1="-0.254" x2="1.524" y2="0.254" layer="51"/>
<rectangle x1="-1.524" y1="-0.254" x2="-1.016" y2="0.254" layer="51"/>
<rectangle x1="-4.064" y1="-0.254" x2="-3.556" y2="0.254" layer="51"/>
<rectangle x1="-6.604" y1="-0.254" x2="-6.096" y2="0.254" layer="51"/>
<rectangle x1="6.096" y1="-0.254" x2="6.604" y2="0.254" layer="51"/>
</package>
<package name="1X06-3.5MM">
<wire x1="-10.5" y1="3.4" x2="-10.5" y2="-2.5" width="0.127" layer="21"/>
<wire x1="-10.5" y1="-2.5" x2="-10.5" y2="-3.6" width="0.127" layer="21"/>
<wire x1="-10.5" y1="-3.6" x2="10.5" y2="-3.6" width="0.127" layer="21"/>
<wire x1="10.5" y1="-3.6" x2="10.5" y2="-2.5" width="0.127" layer="21"/>
<wire x1="10.5" y1="-2.5" x2="10.5" y2="3.4" width="0.127" layer="21"/>
<wire x1="10.5" y1="3.4" x2="-10.5" y2="3.4" width="0.127" layer="21"/>
<wire x1="-10.5" y1="-2.5" x2="10.5" y2="-2.5" width="0.127" layer="21"/>
<pad name="5" x="5.25" y="0" drill="1" diameter="2.1844"/>
<pad name="4" x="1.75" y="0" drill="1" diameter="2.1844"/>
<pad name="3" x="-1.75" y="0" drill="1" diameter="2.1844"/>
<pad name="2" x="-5.25" y="0" drill="1" diameter="2.1844"/>
<pad name="1" x="-8.75" y="0" drill="1" diameter="2.1844"/>
<pad name="6" x="8.75" y="0" drill="1" diameter="2.1844"/>
<text x="7.87" y="-5.81" size="1.27" layer="25" rot="R180">&gt;NAME</text>
</package>
</packages>
<symbols>
<symbol name="ARDUINO">
<wire x1="-22.86" y1="22.86" x2="-22.86" y2="-27.94" width="0.254" layer="94"/>
<wire x1="-22.86" y1="-27.94" x2="35.56" y2="-27.94" width="0.254" layer="94"/>
<wire x1="35.56" y1="-27.94" x2="35.56" y2="-25.4" width="0.254" layer="94"/>
<wire x1="35.56" y1="-25.4" x2="40.64" y2="-20.32" width="0.254" layer="94"/>
<wire x1="40.64" y1="-20.32" x2="40.64" y2="5.08" width="0.254" layer="94"/>
<wire x1="40.64" y1="5.08" x2="35.56" y2="10.16" width="0.254" layer="94"/>
<wire x1="35.56" y1="10.16" x2="35.56" y2="20.32" width="0.254" layer="94"/>
<wire x1="35.56" y1="20.32" x2="33.02" y2="22.86" width="0.254" layer="94"/>
<wire x1="33.02" y1="22.86" x2="-22.86" y2="22.86" width="0.254" layer="94"/>
<text x="-7.62" y="0" size="5.08" layer="94">ARDUINO</text>
<text x="-20.32" y="-5.08" size="2.54" layer="94">Duemilanove</text>
<text x="2.54" y="-5.08" size="2.54" layer="94">Diecimila</text>
<text x="20.32" y="-5.08" size="2.54" layer="94">UNO R1/R2</text>
<pin name="D0" x="30.48" y="27.94" visible="pin" length="middle" rot="R270"/>
<pin name="D1" x="27.94" y="27.94" visible="pin" length="middle" rot="R270"/>
<pin name="D2" x="25.4" y="27.94" visible="pin" length="middle" rot="R270"/>
<pin name="D3" x="22.86" y="27.94" visible="pin" length="middle" rot="R270"/>
<pin name="D4" x="20.32" y="27.94" visible="pin" length="middle" rot="R270"/>
<pin name="D5" x="17.78" y="27.94" visible="pin" length="middle" rot="R270"/>
<pin name="D6" x="15.24" y="27.94" visible="pin" length="middle" rot="R270"/>
<pin name="D7" x="12.7" y="27.94" visible="pin" length="middle" rot="R270"/>
<pin name="D8" x="7.62" y="27.94" visible="pin" length="middle" rot="R270"/>
<pin name="D9" x="5.08" y="27.94" visible="pin" length="middle" rot="R270"/>
<pin name="D10" x="2.54" y="27.94" visible="pin" length="middle" rot="R270"/>
<pin name="D11" x="0" y="27.94" visible="pin" length="middle" rot="R270"/>
<pin name="D12" x="-2.54" y="27.94" visible="pin" length="middle" rot="R270"/>
<pin name="D13" x="-5.08" y="27.94" visible="pin" length="middle" rot="R270"/>
<pin name="GND" x="-7.62" y="27.94" visible="pin" length="middle" direction="pwr" rot="R270"/>
<pin name="AREF" x="-10.16" y="27.94" visible="pin" length="middle" rot="R270"/>
<pin name="A5" x="33.02" y="-33.02" visible="pin" length="middle" rot="R90"/>
<pin name="A4" x="30.48" y="-33.02" visible="pin" length="middle" rot="R90"/>
<pin name="A3" x="27.94" y="-33.02" visible="pin" length="middle" rot="R90"/>
<pin name="A2" x="25.4" y="-33.02" visible="pin" length="middle" rot="R90"/>
<pin name="A1" x="22.86" y="-33.02" visible="pin" length="middle" rot="R90"/>
<pin name="A0" x="20.32" y="-33.02" visible="pin" length="middle" rot="R90"/>
<pin name="VIN" x="15.24" y="-33.02" visible="pin" length="middle" direction="pwr" rot="R90"/>
<pin name="GND1" x="12.7" y="-33.02" visible="pin" length="middle" direction="pwr" rot="R90"/>
<pin name="GND2" x="10.16" y="-33.02" visible="pin" length="middle" direction="pwr" rot="R90"/>
<pin name="5V" x="7.62" y="-33.02" visible="pin" length="middle" direction="pwr" rot="R90"/>
<pin name="3V" x="5.08" y="-33.02" visible="pin" length="middle" direction="pwr" rot="R90"/>
<pin name="/RESET" x="2.54" y="-33.02" visible="pin" length="middle" rot="R90"/>
</symbol>
<symbol name="PINHD3">
<wire x1="-6.35" y1="-5.08" x2="1.27" y2="-5.08" width="0.4064" layer="94"/>
<wire x1="1.27" y1="-5.08" x2="1.27" y2="5.08" width="0.4064" layer="94"/>
<wire x1="1.27" y1="5.08" x2="-6.35" y2="5.08" width="0.4064" layer="94"/>
<wire x1="-6.35" y1="5.08" x2="-6.35" y2="-5.08" width="0.4064" layer="94"/>
<text x="-6.35" y="5.715" size="1.778" layer="95">&gt;NAME</text>
<text x="-6.35" y="-7.62" size="1.778" layer="96">&gt;VALUE</text>
<pin name="1" x="-2.54" y="2.54" visible="pad" length="short" direction="pas" function="dot"/>
<pin name="2" x="-2.54" y="0" visible="pad" length="short" direction="pas" function="dot"/>
<pin name="3" x="-2.54" y="-2.54" visible="pad" length="short" direction="pas" function="dot"/>
</symbol>
<symbol name="PINHD6">
<wire x1="-6.35" y1="-7.62" x2="1.27" y2="-7.62" width="0.4064" layer="94"/>
<wire x1="1.27" y1="-7.62" x2="1.27" y2="10.16" width="0.4064" layer="94"/>
<wire x1="1.27" y1="10.16" x2="-6.35" y2="10.16" width="0.4064" layer="94"/>
<wire x1="-6.35" y1="10.16" x2="-6.35" y2="-7.62" width="0.4064" layer="94"/>
<text x="-6.35" y="10.795" size="1.778" layer="95">&gt;NAME</text>
<text x="-6.35" y="-10.16" size="1.778" layer="96">&gt;VALUE</text>
<pin name="1" x="-2.54" y="7.62" visible="pad" length="short" direction="pas" function="dot"/>
<pin name="2" x="-2.54" y="5.08" visible="pad" length="short" direction="pas" function="dot"/>
<pin name="3" x="-2.54" y="2.54" visible="pad" length="short" direction="pas" function="dot"/>
<pin name="4" x="-2.54" y="0" visible="pad" length="short" direction="pas" function="dot"/>
<pin name="5" x="-2.54" y="-2.54" visible="pad" length="short" direction="pas" function="dot"/>
<pin name="6" x="-2.54" y="-5.08" visible="pad" length="short" direction="pas" function="dot"/>
</symbol>
</symbols>
<devicesets>
<deviceset name="ARDUINO">
<description>&lt;b&gt;Arduino Diecimila/Duemilanove&lt;/b&gt;
&lt;p&gt;
Make a shield with ease, this package has all the named pins as well as the two mounting drill holes and an outline of the USB and DC power connector. The outline is on the DIMENSION layer, so if your board house uses it they will cut the outline to match.
&lt;p&gt;
http://www.ladyada.net/library/pcb/eaglelibrary.html</description>
<gates>
<gate name="G$1" symbol="ARDUINO" x="-7.62" y="2.54"/>
</gates>
<devices>
<device name="UNO" package="ARDUINO">
<connects>
<connect gate="G$1" pin="/RESET" pad="RESET"/>
<connect gate="G$1" pin="3V" pad="3V"/>
<connect gate="G$1" pin="5V" pad="5V"/>
<connect gate="G$1" pin="A0" pad="A0"/>
<connect gate="G$1" pin="A1" pad="A1"/>
<connect gate="G$1" pin="A2" pad="A2"/>
<connect gate="G$1" pin="A3" pad="A3"/>
<connect gate="G$1" pin="A4" pad="A4"/>
<connect gate="G$1" pin="A5" pad="A5"/>
<connect gate="G$1" pin="AREF" pad="AREF"/>
<connect gate="G$1" pin="D0" pad="D0"/>
<connect gate="G$1" pin="D1" pad="D1"/>
<connect gate="G$1" pin="D10" pad="D10"/>
<connect gate="G$1" pin="D11" pad="D11"/>
<connect gate="G$1" pin="D12" pad="D12"/>
<connect gate="G$1" pin="D13" pad="D13"/>
<connect gate="G$1" pin="D2" pad="D2"/>
<connect gate="G$1" pin="D3" pad="D3"/>
<connect gate="G$1" pin="D4" pad="D4"/>
<connect gate="G$1" pin="D5" pad="D5"/>
<connect gate="G$1" pin="D6" pad="D6"/>
<connect gate="G$1" pin="D7" pad="D7"/>
<connect gate="G$1" pin="D8" pad="D8"/>
<connect gate="G$1" pin="D9" pad="D9"/>
<connect gate="G$1" pin="GND" pad="GND"/>
<connect gate="G$1" pin="GND1" pad="GND1"/>
<connect gate="G$1" pin="GND2" pad="GND2"/>
<connect gate="G$1" pin="VIN" pad="VIN"/>
</connects>
<technologies>
<technology name=""/>
</technologies>
</device>
<device name="-BPLACE" package="ARDUINO-BPLACE">
<connects>
<connect gate="G$1" pin="/RESET" pad="RESET"/>
<connect gate="G$1" pin="3V" pad="3V"/>
<connect gate="G$1" pin="5V" pad="5V"/>
<connect gate="G$1" pin="A0" pad="A0"/>
<connect gate="G$1" pin="A1" pad="A1"/>
<connect gate="G$1" pin="A2" pad="A2"/>
<connect gate="G$1" pin="A3" pad="A3"/>
<connect gate="G$1" pin="A4" pad="A4"/>
<connect gate="G$1" pin="A5" pad="A5"/>
<connect gate="G$1" pin="AREF" pad="AREF"/>
<connect gate="G$1" pin="D0" pad="D0"/>
<connect gate="G$1" pin="D1" pad="D1"/>
<connect gate="G$1" pin="D10" pad="D10"/>
<connect gate="G$1" pin="D11" pad="D11"/>
<connect gate="G$1" pin="D12" pad="D12"/>
<connect gate="G$1" pin="D13" pad="D13"/>
<connect gate="G$1" pin="D2" pad="D2"/>
<connect gate="G$1" pin="D3" pad="D3"/>
<connect gate="G$1" pin="D4" pad="D4"/>
<connect gate="G$1" pin="D5" pad="D5"/>
<connect gate="G$1" pin="D6" pad="D6"/>
<connect gate="G$1" pin="D7" pad="D7"/>
<connect gate="G$1" pin="D8" pad="D8"/>
<connect gate="G$1" pin="D9" pad="D9"/>
<connect gate="G$1" pin="GND" pad="GND"/>
<connect gate="G$1" pin="GND1" pad="GND1"/>
<connect gate="G$1" pin="GND2" pad="GND2"/>
<connect gate="G$1" pin="VIN" pad="VIN"/>
</connects>
<technologies>
<technology name=""/>
</technologies>
</device>
<device name="-NOHOLE" package="ARDUINO-NOHOLE">
<connects>
<connect gate="G$1" pin="/RESET" pad="RESET"/>
<connect gate="G$1" pin="3V" pad="3V"/>
<connect gate="G$1" pin="5V" pad="5V"/>
<connect gate="G$1" pin="A0" pad="A0"/>
<connect gate="G$1" pin="A1" pad="A1"/>
<connect gate="G$1" pin="A2" pad="A2"/>
<connect gate="G$1" pin="A3" pad="A3"/>
<connect gate="G$1" pin="A4" pad="A4"/>
<connect gate="G$1" pin="A5" pad="A5"/>
<connect gate="G$1" pin="AREF" pad="AREF"/>
<connect gate="G$1" pin="D0" pad="D0"/>
<connect gate="G$1" pin="D1" pad="D1"/>
<connect gate="G$1" pin="D10" pad="D10"/>
<connect gate="G$1" pin="D11" pad="D11"/>
<connect gate="G$1" pin="D12" pad="D12"/>
<connect gate="G$1" pin="D13" pad="D13"/>
<connect gate="G$1" pin="D2" pad="D2"/>
<connect gate="G$1" pin="D3" pad="D3"/>
<connect gate="G$1" pin="D4" pad="D4"/>
<connect gate="G$1" pin="D5" pad="D5"/>
<connect gate="G$1" pin="D6" pad="D6"/>
<connect gate="G$1" pin="D7" pad="D7"/>
<connect gate="G$1" pin="D8" pad="D8"/>
<connect gate="G$1" pin="D9" pad="D9"/>
<connect gate="G$1" pin="GND" pad="GND"/>
<connect gate="G$1" pin="GND1" pad="GND1"/>
<connect gate="G$1" pin="GND2" pad="GND2"/>
<connect gate="G$1" pin="VIN" pad="VIN"/>
</connects>
<technologies>
<technology name=""/>
</technologies>
</device>
<device name="-NODIM" package="ARDUINO-NODIM">
<connects>
<connect gate="G$1" pin="/RESET" pad="RESET"/>
<connect gate="G$1" pin="3V" pad="3V"/>
<connect gate="G$1" pin="5V" pad="5V"/>
<connect gate="G$1" pin="A0" pad="A0"/>
<connect gate="G$1" pin="A1" pad="A1"/>
<connect gate="G$1" pin="A2" pad="A2"/>
<connect gate="G$1" pin="A3" pad="A3"/>
<connect gate="G$1" pin="A4" pad="A4"/>
<connect gate="G$1" pin="A5" pad="A5"/>
<connect gate="G$1" pin="AREF" pad="AREF"/>
<connect gate="G$1" pin="D0" pad="D0"/>
<connect gate="G$1" pin="D1" pad="D1"/>
<connect gate="G$1" pin="D10" pad="D10"/>
<connect gate="G$1" pin="D11" pad="D11"/>
<connect gate="G$1" pin="D12" pad="D12"/>
<connect gate="G$1" pin="D13" pad="D13"/>
<connect gate="G$1" pin="D2" pad="D2"/>
<connect gate="G$1" pin="D3" pad="D3"/>
<connect gate="G$1" pin="D4" pad="D4"/>
<connect gate="G$1" pin="D5" pad="D5"/>
<connect gate="G$1" pin="D6" pad="D6"/>
<connect gate="G$1" pin="D7" pad="D7"/>
<connect gate="G$1" pin="D8" pad="D8"/>
<connect gate="G$1" pin="D9" pad="D9"/>
<connect gate="G$1" pin="GND" pad="GND"/>
<connect gate="G$1" pin="GND1" pad="GND1"/>
<connect gate="G$1" pin="GND2" pad="GND2"/>
<connect gate="G$1" pin="VIN" pad="VIN"/>
</connects>
<technologies>
<technology name=""/>
</technologies>
</device>
</devices>
</deviceset>
<deviceset name="PINHD-1X3" prefix="JP" uservalue="yes">
<description>&lt;b&gt;PIN HEADER&lt;/b&gt;</description>
<gates>
<gate name="A" symbol="PINHD3" x="0" y="0"/>
</gates>
<devices>
<device name="" package="1X03">
<connects>
<connect gate="A" pin="1" pad="1"/>
<connect gate="A" pin="2" pad="2"/>
<connect gate="A" pin="3" pad="3"/>
</connects>
<technologies>
<technology name=""/>
</technologies>
</device>
<device name="CB" package="1X03-CLEANBIG">
<connects>
<connect gate="A" pin="1" pad="1"/>
<connect gate="A" pin="2" pad="2"/>
<connect gate="A" pin="3" pad="3"/>
</connects>
<technologies>
<technology name=""/>
</technologies>
</device>
</devices>
</deviceset>
<deviceset name="PINHD-1X6" prefix="JP" uservalue="yes">
<description>&lt;b&gt;PIN HEADER&lt;/b&gt;</description>
<gates>
<gate name="A" symbol="PINHD6" x="0" y="-2.54"/>
</gates>
<devices>
<device name="" package="1X06">
<connects>
<connect gate="A" pin="1" pad="1"/>
<connect gate="A" pin="2" pad="2"/>
<connect gate="A" pin="3" pad="3"/>
<connect gate="A" pin="4" pad="4"/>
<connect gate="A" pin="5" pad="5"/>
<connect gate="A" pin="6" pad="6"/>
</connects>
<technologies>
<technology name=""/>
</technologies>
</device>
<device name="CLEAN" package="1X06-CLEAN">
<connects>
<connect gate="A" pin="1" pad="1"/>
<connect gate="A" pin="2" pad="2"/>
<connect gate="A" pin="3" pad="3"/>
<connect gate="A" pin="4" pad="4"/>
<connect gate="A" pin="5" pad="5"/>
<connect gate="A" pin="6" pad="6"/>
</connects>
<technologies>
<technology name=""/>
</technologies>
</device>
<device name="CB" package="1X06-CLEANBIG">
<connects>
<connect gate="A" pin="1" pad="1"/>
<connect gate="A" pin="2" pad="2"/>
<connect gate="A" pin="3" pad="3"/>
<connect gate="A" pin="4" pad="4"/>
<connect gate="A" pin="5" pad="5"/>
<connect gate="A" pin="6" pad="6"/>
</connects>
<technologies>
<technology name=""/>
</technologies>
</device>
<device name="B" package="1X06-BIG">
<connects>
<connect gate="A" pin="1" pad="1"/>
<connect gate="A" pin="2" pad="2"/>
<connect gate="A" pin="3" pad="3"/>
<connect gate="A" pin="4" pad="4"/>
<connect gate="A" pin="5" pad="5"/>
<connect gate="A" pin="6" pad="6"/>
</connects>
<technologies>
<technology name=""/>
</technologies>
</device>
<device name="LOCK" package="1X06-BIGLOCK">
<connects>
<connect gate="A" pin="1" pad="1"/>
<connect gate="A" pin="2" pad="2"/>
<connect gate="A" pin="3" pad="3"/>
<connect gate="A" pin="4" pad="4"/>
<connect gate="A" pin="5" pad="5"/>
<connect gate="A" pin="6" pad="6"/>
</connects>
<technologies>
<technology name=""/>
</technologies>
</device>
<device name="-3.5MM" package="1X06-3.5MM">
<connects>
<connect gate="A" pin="1" pad="1"/>
<connect gate="A" pin="2" pad="2"/>
<connect gate="A" pin="3" pad="3"/>
<connect gate="A" pin="4" pad="4"/>
<connect gate="A" pin="5" pad="5"/>
<connect gate="A" pin="6" pad="6"/>
</connects>
<technologies>
<technology name=""/>
</technologies>
</device>
</devices>
</deviceset>
</devicesets>
</library>
<library name="con-ptr500">
<description>&lt;b&gt;PTR Connectors&lt;/b&gt;&lt;p&gt;
Aug. 2004 / PTR Meßtechnik:&lt;br&gt;
Die Bezeichnung der Serie AK505 wurde geändert.&lt;br&gt;
Es handelt sich hierbei um AK500 in horizontaler Ausführung.&lt;p&gt;
&lt;TABLE BORDER=0 CELLSPACING=1 CELLPADDING=2&gt;
  &lt;TR&gt;
    &lt;TD ALIGN=LEFT&gt;
      &lt;FONT SIZE=4 FACE=ARIAL&gt;&lt;B&gt;Alte Bezeichnung&lt;/B&gt;&lt;/FONT&gt;
    &lt;/TD&gt;
    &lt;TD ALIGN=LEFT&gt;
      &lt;FONT SIZE=4 FACE=ARIAL&gt;&lt;B&gt;Neue Bezeichnung&lt;/B&gt;&lt;/FONT&gt;
    &lt;/TD&gt;
  &lt;/TR&gt;
  &lt;TR&gt;
    &lt;TD ALIGN=LEFT&gt;
      &lt;B&gt;
      &lt;FONT SIZE=3 FACE=ARIAL color="#FF0000"&gt;AK505/2,grau&lt;/FONT&gt;
      &lt;/B&gt;
    &lt;/TD&gt;
    &lt;TD ALIGN=LEFT&gt;
      &lt;B&gt;
      &lt;FONT SIZE=3 FACE=ARIAL color="#0000FF"&gt;AK500/2-5.0-H-GRAU&lt;/FONT&gt;
      &lt;/B&gt;
    &lt;/TD&gt;
  &lt;/TR&gt;
  &lt;TR&gt;
    &lt;TD ALIGN=LEFT&gt;
      &lt;B&gt;
      &lt;FONT SIZE=3 FACE=ARIAL color="#FF0000"&gt;AK505/2DS,grau&lt;/FONT&gt;
      &lt;/B&gt;
    &lt;/TD&gt;
    &lt;TD ALIGN=LEFT&gt;
      &lt;B&gt;
      &lt;FONT SIZE=3 FACE=ARIAL color="#0000FF"&gt;AK500/2DS-5.0-H-GRAU&lt;/FONT&gt;
      &lt;/B&gt;
    &lt;/TD&gt;
  &lt;/TR&gt;
  &lt;TR&gt;
    &lt;TD ALIGN=LEFT&gt;
      &lt;B&gt;
      &lt;FONT SIZE=3 FACE=ARIAL color="#FF0000"&gt;AKZ505/2,grau&lt;/FONT&gt;
      &lt;/B&gt;
    &lt;/TD&gt;
    &lt;TD ALIGN=LEFT&gt;
      &lt;B&gt;
      &lt;FONT SIZE=3 FACE=ARIAL color="#0000FF"&gt;AKZ500/2-5.08-H-GRAU&lt;/FONT&gt;
      &lt;/B&gt;
    &lt;/TD&gt;
  &lt;/TABLE&gt;

&lt;author&gt;Created by librarian@cadsoft.de&lt;/author&gt;</description>
<packages>
<package name="AK500/2">
<description>&lt;b&gt;CONNECTOR&lt;/b&gt;</description>
<wire x1="-5.08" y1="-3.556" x2="-5.08" y2="-2.159" width="0.1524" layer="21"/>
<wire x1="5.08" y1="3.937" x2="-5.08" y2="3.937" width="0.1524" layer="21"/>
<wire x1="5.08" y1="3.937" x2="5.08" y2="2.159" width="0.1524" layer="21"/>
<wire x1="-5.08" y1="-3.556" x2="5.08" y2="-3.556" width="0.1524" layer="21"/>
<wire x1="-5.08" y1="3.048" x2="-5.588" y2="3.175" width="0.1524" layer="21"/>
<wire x1="-5.08" y1="3.048" x2="-5.08" y2="3.937" width="0.1524" layer="21"/>
<wire x1="-5.588" y1="3.175" x2="-5.588" y2="2.032" width="0.1524" layer="21"/>
<wire x1="-5.588" y1="2.032" x2="-5.08" y2="2.159" width="0.1524" layer="21"/>
<wire x1="-5.08" y1="2.159" x2="-5.08" y2="3.048" width="0.1524" layer="21"/>
<wire x1="-5.08" y1="2.159" x2="5.08" y2="2.159" width="0.1524" layer="21"/>
<wire x1="5.08" y1="2.159" x2="5.08" y2="-2.159" width="0.1524" layer="21"/>
<wire x1="-5.08" y1="-2.159" x2="5.08" y2="-2.159" width="0.1524" layer="21"/>
<wire x1="-5.08" y1="-2.159" x2="-5.08" y2="2.159" width="0.1524" layer="21"/>
<wire x1="5.08" y1="-2.159" x2="5.08" y2="-3.556" width="0.1524" layer="21"/>
<wire x1="1.4986" y1="-1.397" x2="3.9116" y2="1.016" width="0.1524" layer="51"/>
<wire x1="1.1176" y1="-1.016" x2="3.5306" y2="1.397" width="0.1524" layer="51"/>
<wire x1="-3.9116" y1="-1.016" x2="-1.4986" y2="1.397" width="0.1524" layer="51"/>
<wire x1="-3.5306" y1="-1.397" x2="-1.1176" y2="1.016" width="0.1524" layer="51"/>
<wire x1="1.4986" y1="-1.016" x2="3.5306" y2="1.016" width="0.6096" layer="51"/>
<wire x1="-3.5306" y1="-1.016" x2="-1.4986" y2="1.016" width="0.6096" layer="51"/>
<wire x1="1.1176" y1="-1.016" x2="1.4986" y2="-1.397" width="0.1524" layer="51"/>
<wire x1="3.5306" y1="1.397" x2="3.9116" y2="1.016" width="0.1524" layer="51"/>
<wire x1="-3.9116" y1="-1.016" x2="-3.5306" y2="-1.397" width="0.1524" layer="51"/>
<wire x1="-1.4986" y1="1.397" x2="-1.1176" y2="1.016" width="0.1524" layer="51"/>
<circle x="2.5146" y="3.048" radius="0.508" width="0.1524" layer="21"/>
<circle x="-2.5146" y="3.048" radius="0.508" width="0.1524" layer="21"/>
<circle x="2.5146" y="0" radius="1.778" width="0.1524" layer="51"/>
<circle x="-2.5146" y="0" radius="1.778" width="0.1524" layer="51"/>
<pad name="1" x="-2.5146" y="0" drill="1.3208" shape="long" rot="R90"/>
<pad name="2" x="2.5146" y="0" drill="1.3208" shape="long" rot="R90"/>
<text x="-5.08" y="4.445" size="1.778" layer="25" ratio="10">&gt;NAME</text>
<text x="-5.08" y="-5.715" size="1.778" layer="27" ratio="10">&gt;VALUE</text>
<text x="-4.445" y="2.54" size="0.9906" layer="21" ratio="12">1</text>
<text x="0.635" y="2.54" size="0.9906" layer="21" ratio="12">2</text>
<rectangle x1="-0.381" y1="-1.905" x2="0.381" y2="1.905" layer="21"/>
</package>
</packages>
<symbols>
<symbol name="KL">
<circle x="1.27" y="0" radius="1.27" width="0.254" layer="94"/>
<text x="-1.27" y="0.889" size="1.778" layer="95" rot="R180">&gt;NAME</text>
<pin name="KL" x="5.08" y="0" visible="off" length="short" direction="pas" rot="R180"/>
</symbol>
<symbol name="KLV">
<circle x="1.27" y="0" radius="1.27" width="0.254" layer="94"/>
<text x="-1.27" y="0.889" size="1.778" layer="95" rot="R180">&gt;NAME</text>
<text x="-3.81" y="-3.683" size="1.778" layer="96">&gt;VALUE</text>
<pin name="KL" x="5.08" y="0" visible="off" length="short" direction="pas" rot="R180"/>
</symbol>
</symbols>
<devicesets>
<deviceset name="AK500/2" prefix="X" uservalue="yes">
<description>&lt;b&gt;CONNECTOR&lt;/b&gt;</description>
<gates>
<gate name="-1" symbol="KL" x="0" y="5.08" addlevel="always"/>
<gate name="-2" symbol="KLV" x="0" y="0" addlevel="always"/>
</gates>
<devices>
<device name="" package="AK500/2">
<connects>
<connect gate="-1" pin="KL" pad="1"/>
<connect gate="-2" pin="KL" pad="2"/>
</connects>
<technologies>
<technology name="">
<attribute name="MF" value="" constant="no"/>
<attribute name="MPN" value="" constant="no"/>
<attribute name="OC_FARNELL" value="unknown" constant="no"/>
<attribute name="OC_NEWARK" value="unknown" constant="no"/>
</technology>
</technologies>
</device>
</devices>
</deviceset>
</devicesets>
</library>
</libraries>
<attributes>
</attributes>
<variantdefs>
</variantdefs>
<classes>
<class number="0" name="default" width="0" drill="0">
</class>
</classes>
<parts>
<part name="U$1" library="adafruit" deviceset="ARDUINO" device="UNO"/>
<part name="SERVOR" library="adafruit" deviceset="PINHD-1X3" device=""/>
<part name="SERIAL" library="adafruit" deviceset="PINHD-1X3" device=""/>
<part name="JP3" library="adafruit" deviceset="PINHD-1X3" device=""/>
<part name="JP4" library="adafruit" deviceset="PINHD-1X6" device=""/>
<part name="JP5" library="adafruit" deviceset="PINHD-1X6" device=""/>
<part name="SERVOL" library="adafruit" deviceset="PINHD-1X3" device=""/>
<part name="JP1" library="adafruit" deviceset="PINHD-1X3" device=""/>
<part name="JP2" library="adafruit" deviceset="PINHD-1X3" device=""/>
<part name="JP6" library="adafruit" deviceset="PINHD-1X3" device=""/>
<part name="JP7" library="adafruit" deviceset="PINHD-1X3" device=""/>
<part name="JP8" library="adafruit" deviceset="PINHD-1X3" device=""/>
<part name="X1" library="con-ptr500" deviceset="AK500/2" device=""/>
</parts>
<sheets>
<sheet>
<plain>
</plain>
<instances>
<instance part="U$1" gate="G$1" x="40.64" y="33.02"/>
<instance part="SERVOR" gate="A" x="109.22" y="30.48" rot="R180"/>
<instance part="SERIAL" gate="A" x="109.22" y="15.24" rot="R180"/>
<instance part="JP3" gate="A" x="109.22" y="60.96" rot="R180"/>
<instance part="JP4" gate="A" x="106.68" y="-27.94"/>
<instance part="JP5" gate="A" x="45.72" y="-27.94"/>
<instance part="SERVOL" gate="A" x="109.22" y="45.72" rot="R180"/>
<instance part="JP1" gate="A" x="109.22" y="76.2" rot="R180"/>
<instance part="JP2" gate="A" x="109.22" y="91.44" rot="R180"/>
<instance part="JP6" gate="A" x="144.78" y="60.96" rot="R180"/>
<instance part="JP7" gate="A" x="144.78" y="76.2" rot="R180"/>
<instance part="JP8" gate="A" x="144.78" y="91.44" rot="R180"/>
<instance part="X1" gate="-1" x="-2.54" y="-2.54"/>
<instance part="X1" gate="-2" x="-2.54" y="-7.62"/>
</instances>
<busses>
</busses>
<nets>
<net name="N$1" class="0">
<segment>
<pinref part="U$1" gate="G$1" pin="A0"/>
<wire x1="60.96" y1="0" x2="60.96" y2="-17.78" width="0.1524" layer="91"/>
<wire x1="60.96" y1="-17.78" x2="30.48" y2="-17.78" width="0.1524" layer="91"/>
<wire x1="30.48" y1="-17.78" x2="30.48" y2="-22.86" width="0.1524" layer="91"/>
<wire x1="30.48" y1="-22.86" x2="43.18" y2="-22.86" width="0.1524" layer="91"/>
<pinref part="JP5" gate="A" pin="2"/>
</segment>
</net>
<net name="N$2" class="0">
<segment>
<pinref part="U$1" gate="G$1" pin="A1"/>
<wire x1="63.5" y1="0" x2="63.5" y2="-20.32" width="0.1524" layer="91"/>
<wire x1="63.5" y1="-20.32" x2="43.18" y2="-20.32" width="0.1524" layer="91"/>
<pinref part="JP5" gate="A" pin="1"/>
</segment>
</net>
<net name="N$3" class="0">
<segment>
<pinref part="U$1" gate="G$1" pin="A2"/>
<wire x1="66.04" y1="0" x2="66.04" y2="-22.86" width="0.1524" layer="91"/>
<wire x1="66.04" y1="-22.86" x2="104.14" y2="-22.86" width="0.1524" layer="91"/>
<pinref part="JP4" gate="A" pin="2"/>
</segment>
</net>
<net name="N$4" class="0">
<segment>
<pinref part="U$1" gate="G$1" pin="A3"/>
<wire x1="68.58" y1="0" x2="68.58" y2="-20.32" width="0.1524" layer="91"/>
<pinref part="JP4" gate="A" pin="1"/>
<wire x1="68.58" y1="-20.32" x2="104.14" y2="-20.32" width="0.1524" layer="91"/>
</segment>
</net>
<net name="CLK" class="0">
<segment>
<pinref part="JP5" gate="A" pin="3"/>
<pinref part="JP4" gate="A" pin="3"/>
<wire x1="43.18" y1="-25.4" x2="104.14" y2="-25.4" width="0.1524" layer="91"/>
<label x="109.22" y="-25.4" size="1.778" layer="95" xref="yes"/>
</segment>
<segment>
<pinref part="U$1" gate="G$1" pin="D2"/>
<wire x1="66.04" y1="60.96" x2="66.04" y2="86.36" width="0.1524" layer="91"/>
<label x="66.04" y="86.36" size="1.778" layer="95" rot="R90" xref="yes"/>
</segment>
</net>
<net name="MR" class="0">
<segment>
<pinref part="JP4" gate="A" pin="4"/>
<pinref part="JP5" gate="A" pin="4"/>
<wire x1="104.14" y1="-27.94" x2="43.18" y2="-27.94" width="0.1524" layer="91"/>
<label x="109.22" y="-27.94" size="1.778" layer="95" xref="yes"/>
</segment>
<segment>
<pinref part="U$1" gate="G$1" pin="D3"/>
<wire x1="63.5" y1="60.96" x2="63.5" y2="96.52" width="0.1524" layer="91"/>
<label x="63.5" y="96.52" size="1.778" layer="95" rot="R90" xref="yes"/>
</segment>
</net>
<net name="LATCH" class="0">
<segment>
<pinref part="JP5" gate="A" pin="5"/>
<pinref part="JP4" gate="A" pin="5"/>
<wire x1="43.18" y1="-30.48" x2="104.14" y2="-30.48" width="0.1524" layer="91"/>
<label x="109.22" y="-30.48" size="1.778" layer="95" xref="yes"/>
</segment>
<segment>
<pinref part="U$1" gate="G$1" pin="D4"/>
<wire x1="60.96" y1="60.96" x2="60.96" y2="86.36" width="0.1524" layer="91"/>
<label x="60.96" y="86.36" size="1.778" layer="95" rot="R90" xref="yes"/>
</segment>
</net>
<net name="ENABLE" class="0">
<segment>
<pinref part="JP5" gate="A" pin="6"/>
<pinref part="JP4" gate="A" pin="6"/>
<wire x1="43.18" y1="-33.02" x2="104.14" y2="-33.02" width="0.1524" layer="91"/>
<label x="109.22" y="-33.02" size="1.778" layer="95" xref="yes"/>
</segment>
<segment>
<pinref part="U$1" gate="G$1" pin="D5"/>
<wire x1="58.42" y1="60.96" x2="58.42" y2="96.52" width="0.1524" layer="91"/>
<label x="58.42" y="96.52" size="1.778" layer="95" rot="R90" xref="yes"/>
</segment>
</net>
<net name="LSERVO" class="0">
<segment>
<pinref part="U$1" gate="G$1" pin="D10"/>
<wire x1="43.18" y1="60.96" x2="43.18" y2="81.28" width="0.1524" layer="91"/>
<label x="43.18" y="81.28" size="1.778" layer="95" rot="R90" xref="yes"/>
</segment>
<segment>
<pinref part="SERVOL" gate="A" pin="3"/>
<wire x1="111.76" y1="48.26" x2="124.46" y2="48.26" width="0.1524" layer="91"/>
<label x="124.46" y="48.26" size="1.778" layer="95" xref="yes"/>
</segment>
</net>
<net name="RSERVO" class="0">
<segment>
<pinref part="U$1" gate="G$1" pin="D11"/>
<wire x1="40.64" y1="60.96" x2="40.64" y2="66.04" width="0.1524" layer="91"/>
<label x="40.64" y="66.04" size="1.778" layer="95" rot="R90" xref="yes"/>
</segment>
<segment>
<pinref part="SERVOR" gate="A" pin="3"/>
<wire x1="111.76" y1="33.02" x2="124.46" y2="33.02" width="0.1524" layer="91"/>
<label x="124.46" y="33.02" size="1.778" layer="95" xref="yes"/>
</segment>
</net>
<net name="RX" class="0">
<segment>
<pinref part="U$1" gate="G$1" pin="D0"/>
<wire x1="71.12" y1="60.96" x2="71.12" y2="66.04" width="0.1524" layer="91"/>
<label x="71.12" y="66.04" size="1.778" layer="95" xref="yes"/>
</segment>
<segment>
<pinref part="SERIAL" gate="A" pin="3"/>
<wire x1="111.76" y1="17.78" x2="124.46" y2="17.78" width="0.1524" layer="91"/>
<label x="124.46" y="17.78" size="1.778" layer="95" xref="yes"/>
</segment>
</net>
<net name="TX" class="0">
<segment>
<pinref part="U$1" gate="G$1" pin="D1"/>
<wire x1="68.58" y1="60.96" x2="68.58" y2="71.12" width="0.1524" layer="91"/>
<label x="68.58" y="71.12" size="1.778" layer="95" xref="yes"/>
</segment>
<segment>
<pinref part="SERIAL" gate="A" pin="2"/>
<wire x1="111.76" y1="15.24" x2="134.62" y2="15.24" width="0.1524" layer="91"/>
<label x="134.62" y="15.24" size="1.778" layer="95" xref="yes"/>
</segment>
</net>
<net name="GND" class="0">
<segment>
<pinref part="U$1" gate="G$1" pin="GND1"/>
<wire x1="53.34" y1="0" x2="53.34" y2="-7.62" width="0.1524" layer="91"/>
<label x="53.34" y="-7.62" size="1.778" layer="95" rot="R270" xref="yes"/>
<pinref part="X1" gate="-2" pin="KL"/>
<wire x1="2.54" y1="-7.62" x2="45.72" y2="-7.62" width="0.1524" layer="91"/>
<wire x1="45.72" y1="-7.62" x2="53.34" y2="0" width="0.1524" layer="91"/>
</segment>
<segment>
<pinref part="SERVOL" gate="A" pin="1"/>
<wire x1="111.76" y1="43.18" x2="124.46" y2="43.18" width="0.1524" layer="91"/>
<label x="124.46" y="43.18" size="1.778" layer="95" xref="yes"/>
</segment>
<segment>
<pinref part="SERVOR" gate="A" pin="1"/>
<wire x1="111.76" y1="27.94" x2="124.46" y2="27.94" width="0.1524" layer="91"/>
<label x="124.46" y="27.94" size="1.778" layer="95" xref="yes"/>
</segment>
<segment>
<pinref part="SERIAL" gate="A" pin="1"/>
<wire x1="111.76" y1="12.7" x2="124.46" y2="12.7" width="0.1524" layer="91"/>
<label x="124.46" y="12.7" size="1.778" layer="95" xref="yes"/>
</segment>
<segment>
<pinref part="JP3" gate="A" pin="1"/>
<wire x1="111.76" y1="58.42" x2="119.38" y2="58.42" width="0.1524" layer="91"/>
<label x="119.38" y="58.42" size="1.778" layer="95" xref="yes"/>
</segment>
<segment>
<pinref part="JP1" gate="A" pin="1"/>
<wire x1="111.76" y1="73.66" x2="119.38" y2="73.66" width="0.1524" layer="91"/>
<label x="119.38" y="73.66" size="1.778" layer="95" xref="yes"/>
</segment>
<segment>
<pinref part="JP2" gate="A" pin="1"/>
<wire x1="111.76" y1="88.9" x2="119.38" y2="88.9" width="0.1524" layer="91"/>
<label x="119.38" y="88.9" size="1.778" layer="95" xref="yes"/>
</segment>
<segment>
<pinref part="JP6" gate="A" pin="1"/>
<wire x1="147.32" y1="58.42" x2="154.94" y2="58.42" width="0.1524" layer="91"/>
<label x="154.94" y="58.42" size="1.778" layer="95" xref="yes"/>
</segment>
<segment>
<pinref part="JP7" gate="A" pin="1"/>
<wire x1="147.32" y1="73.66" x2="154.94" y2="73.66" width="0.1524" layer="91"/>
<label x="154.94" y="73.66" size="1.778" layer="95" xref="yes"/>
</segment>
<segment>
<pinref part="JP8" gate="A" pin="1"/>
<wire x1="147.32" y1="88.9" x2="154.94" y2="88.9" width="0.1524" layer="91"/>
<label x="154.94" y="88.9" size="1.778" layer="95" xref="yes"/>
</segment>
</net>
<net name="VCC" class="0">
<segment>
<pinref part="U$1" gate="G$1" pin="5V"/>
<wire x1="48.26" y1="0" x2="48.26" y2="-7.62" width="0.1524" layer="91"/>
<label x="48.26" y="-7.62" size="1.778" layer="95" rot="R270" xref="yes"/>
<pinref part="X1" gate="-1" pin="KL"/>
<wire x1="2.54" y1="-2.54" x2="45.72" y2="-2.54" width="0.1524" layer="91"/>
<wire x1="45.72" y1="-2.54" x2="48.26" y2="0" width="0.1524" layer="91"/>
</segment>
<segment>
<pinref part="SERVOL" gate="A" pin="2"/>
<wire x1="111.76" y1="45.72" x2="139.7" y2="45.72" width="0.1524" layer="91"/>
<label x="139.7" y="45.72" size="1.778" layer="95" xref="yes"/>
</segment>
<segment>
<pinref part="SERVOR" gate="A" pin="2"/>
<wire x1="111.76" y1="30.48" x2="139.7" y2="30.48" width="0.1524" layer="91"/>
<label x="139.7" y="30.48" size="1.778" layer="95" xref="yes"/>
</segment>
<segment>
<pinref part="JP3" gate="A" pin="2"/>
<wire x1="111.76" y1="60.96" x2="129.54" y2="60.96" width="0.1524" layer="91"/>
<label x="129.54" y="60.96" size="1.778" layer="95" xref="yes"/>
</segment>
<segment>
<pinref part="JP1" gate="A" pin="2"/>
<wire x1="111.76" y1="76.2" x2="129.54" y2="76.2" width="0.1524" layer="91"/>
<label x="129.54" y="76.2" size="1.778" layer="95" xref="yes"/>
</segment>
<segment>
<pinref part="JP2" gate="A" pin="2"/>
<wire x1="111.76" y1="91.44" x2="129.54" y2="91.44" width="0.1524" layer="91"/>
<label x="129.54" y="91.44" size="1.778" layer="95" xref="yes"/>
</segment>
<segment>
<pinref part="JP6" gate="A" pin="2"/>
<wire x1="147.32" y1="60.96" x2="165.1" y2="60.96" width="0.1524" layer="91"/>
<label x="165.1" y="60.96" size="1.778" layer="95" xref="yes"/>
</segment>
<segment>
<pinref part="JP7" gate="A" pin="2"/>
<wire x1="147.32" y1="76.2" x2="165.1" y2="76.2" width="0.1524" layer="91"/>
<label x="165.1" y="76.2" size="1.778" layer="95" xref="yes"/>
</segment>
<segment>
<pinref part="JP8" gate="A" pin="2"/>
<wire x1="147.32" y1="91.44" x2="165.1" y2="91.44" width="0.1524" layer="91"/>
<label x="165.1" y="91.44" size="1.778" layer="95" xref="yes"/>
</segment>
</net>
<net name="EXT2" class="0">
<segment>
<pinref part="U$1" gate="G$1" pin="D12"/>
<wire x1="38.1" y1="60.96" x2="38.1" y2="71.12" width="0.1524" layer="91"/>
<wire x1="38.1" y1="71.12" x2="17.78" y2="71.12" width="0.1524" layer="91"/>
<label x="17.78" y="71.12" size="1.778" layer="95" rot="R180" xref="yes"/>
</segment>
<segment>
<pinref part="JP2" gate="A" pin="3"/>
<wire x1="111.76" y1="93.98" x2="119.38" y2="93.98" width="0.1524" layer="91"/>
<label x="119.38" y="93.98" size="1.778" layer="95" xref="yes"/>
</segment>
</net>
<net name="EXT1" class="0">
<segment>
<pinref part="U$1" gate="G$1" pin="D13"/>
<wire x1="35.56" y1="60.96" x2="35.56" y2="68.58" width="0.1524" layer="91"/>
<wire x1="35.56" y1="68.58" x2="27.94" y2="68.58" width="0.1524" layer="91"/>
<label x="27.94" y="68.58" size="1.778" layer="95" rot="R180" xref="yes"/>
</segment>
<segment>
<pinref part="JP1" gate="A" pin="3"/>
<wire x1="111.76" y1="78.74" x2="119.38" y2="78.74" width="0.1524" layer="91"/>
<label x="119.38" y="78.74" size="1.778" layer="95" xref="yes"/>
</segment>
</net>
<net name="EXT3" class="0">
<segment>
<pinref part="JP3" gate="A" pin="3"/>
<wire x1="111.76" y1="63.5" x2="119.38" y2="63.5" width="0.1524" layer="91"/>
<label x="119.38" y="63.5" size="1.778" layer="95" xref="yes"/>
</segment>
<segment>
<pinref part="U$1" gate="G$1" pin="D9"/>
<wire x1="45.72" y1="60.96" x2="45.72" y2="66.04" width="0.1524" layer="91"/>
<label x="45.72" y="66.04" size="1.778" layer="95" rot="R90" xref="yes"/>
</segment>
</net>
<net name="EXT4" class="0">
<segment>
<pinref part="JP8" gate="A" pin="3"/>
<wire x1="147.32" y1="93.98" x2="154.94" y2="93.98" width="0.1524" layer="91"/>
<label x="154.94" y="93.98" size="1.778" layer="95" xref="yes"/>
</segment>
<segment>
<pinref part="U$1" gate="G$1" pin="D8"/>
<wire x1="48.26" y1="60.96" x2="48.26" y2="78.74" width="0.1524" layer="91"/>
<label x="48.26" y="78.74" size="1.778" layer="95" rot="R90" xref="yes"/>
</segment>
</net>
<net name="EXT5" class="0">
<segment>
<pinref part="JP7" gate="A" pin="3"/>
<wire x1="147.32" y1="78.74" x2="154.94" y2="78.74" width="0.1524" layer="91"/>
<label x="154.94" y="78.74" size="1.778" layer="95" xref="yes"/>
</segment>
<segment>
<pinref part="U$1" gate="G$1" pin="D7"/>
<wire x1="53.34" y1="60.96" x2="53.34" y2="73.66" width="0.1524" layer="91"/>
<label x="53.34" y="73.66" size="1.778" layer="95" rot="R90" xref="yes"/>
</segment>
</net>
<net name="EXT6" class="0">
<segment>
<pinref part="JP6" gate="A" pin="3"/>
<wire x1="147.32" y1="63.5" x2="154.94" y2="63.5" width="0.1524" layer="91"/>
<label x="154.94" y="63.5" size="1.778" layer="95" xref="yes"/>
</segment>
<segment>
<pinref part="U$1" gate="G$1" pin="D6"/>
<wire x1="55.88" y1="60.96" x2="55.88" y2="66.04" width="0.1524" layer="91"/>
<label x="55.88" y="66.04" size="1.778" layer="95" rot="R90" xref="yes"/>
</segment>
</net>
</nets>
</sheet>
</sheets>
</schematic>
</drawing>
</eagle>
